<?xml version="1.0" encoding="UTF-8" standalone="no"?>
<!DOCTYPE svg PUBLIC "-//W3C//DTD SVG 1.1//EN"
 "http://www.w3.org/Graphics/SVG/1.1/DTD/svg11.dtd">
<!-- Generated by graphviz version 2.38.0 (20140413.2041)
 -->
<!-- Title: Atlassian Crowd Data Center Clone Stack Pages: 1 -->
<svg width="7293pt" height="476pt"
 viewBox="0.00 0.00 7292.50 476.00" xmlns="http://www.w3.org/2000/svg" xmlns:xlink="http://www.w3.org/1999/xlink">
<g id="graph0" class="graph" transform="scale(1 1) rotate(0) translate(4 472)">
<title>Atlassian Crowd Data Center Clone Stack</title>
<polygon fill="white" stroke="none" points="-4,4 -4,-472 7288.5,-472 7288.5,4 -4,4"/>
<!-- LoadBalancerCname -->
<g id="node1" class="node"><title>LoadBalancerCname</title>
<polygon fill="none" stroke="black" points="451,-252 320,-252 320,-216 451,-216 451,-252"/>
<text text-anchor="middle" x="385.5" y="-230.3" font-family="Times,serif" font-size="14.00">LoadBalancerCname</text>
</g>
<!-- ClusterNodeLaunchConfig -->
<g id="node13" class="node"><title>ClusterNodeLaunchConfig</title>
<polygon fill="none" stroke="black" points="2873,-180 2710,-180 2710,-144 2873,-144 2873,-180"/>
<text text-anchor="middle" x="2791.5" y="-158.3" font-family="Times,serif" font-size="14.00">ClusterNodeLaunchConfig</text>
</g>
<!-- LoadBalancerCname&#45;&gt;ClusterNodeLaunchConfig -->
<g id="edge90" class="edge"><title>LoadBalancerCname&#45;&gt;ClusterNodeLaunchConfig</title>
<path fill="none" stroke="black" d="M451.325,-230.055C534.005,-226.42 680.234,-220.206 805.5,-216 1535.47,-191.488 2416.68,-171.264 2699.46,-165.005"/>
<polygon fill="black" stroke="black" points="2699.75,-168.5 2709.67,-164.78 2699.59,-161.502 2699.75,-168.5"/>
</g>
<!-- ServiceURL -->
<g id="node71" class="node"><title>ServiceURL</title>
<path fill="lightgrey" stroke="black" d="M219.5,-36C219.5,-36 159.5,-36 159.5,-36 153.5,-36 147.5,-30 147.5,-24 147.5,-24 147.5,-12 147.5,-12 147.5,-6 153.5,-0 159.5,-0 159.5,-0 219.5,-0 219.5,-0 225.5,-0 231.5,-6 231.5,-12 231.5,-12 231.5,-24 231.5,-24 231.5,-30 225.5,-36 219.5,-36"/>
<text text-anchor="middle" x="189.5" y="-14.3" font-family="Times,serif" font-size="14.00">ServiceURL</text>
</g>
<!-- LoadBalancerCname&#45;&gt;ServiceURL -->
<g id="edge128" class="edge"><title>LoadBalancerCname&#45;&gt;ServiceURL</title>
<path fill="none" stroke="black" d="M372.366,-215.847C348.939,-185.631 297.855,-121.436 249.5,-72 239.761,-62.0432 228.453,-51.7602 218.296,-42.9322"/>
<polygon fill="black" stroke="black" points="220.317,-40.0548 210.449,-36.1982 215.759,-45.3668 220.317,-40.0548"/>
</g>
<!-- DBCname -->
<g id="node2" class="node"><title>DBCname</title>
<polygon fill="none" stroke="black" points="888.5,-252 814.5,-252 814.5,-216 888.5,-216 888.5,-252"/>
<text text-anchor="middle" x="851.5" y="-230.3" font-family="Times,serif" font-size="14.00">DBCname</text>
</g>
<!-- DB -->
<g id="node3" class="node"><title>DB</title>
<polygon fill="none" stroke="black" points="2213.5,-324 2159.5,-324 2159.5,-288 2213.5,-288 2213.5,-324"/>
<text text-anchor="middle" x="2186.5" y="-302.3" font-family="Times,serif" font-size="14.00">DB</text>
</g>
<!-- DB&#45;&gt;DBCname -->
<g id="edge7" class="edge"><title>DB&#45;&gt;DBCname</title>
<path fill="none" stroke="black" d="M2159.23,-303.57C1992.7,-294.838 1112.93,-248.708 898.606,-237.47"/>
<polygon fill="black" stroke="black" points="898.787,-233.975 888.618,-236.946 898.421,-240.965 898.787,-233.975"/>
</g>
<!-- DB&#45;&gt;ClusterNodeLaunchConfig -->
<g id="edge66" class="edge"><title>DB&#45;&gt;ClusterNodeLaunchConfig</title>
<path fill="none" stroke="black" d="M2163.05,-287.796C2160.04,-266.852 2181.07,-232.268 2210.5,-216 2289.67,-172.239 2555.34,-164.352 2699.81,-163.109"/>
<polygon fill="black" stroke="black" points="2700.02,-166.608 2709.99,-163.031 2699.97,-159.608 2700.02,-166.608"/>
</g>
<!-- DB&#45;&gt;ClusterNodeLaunchConfig -->
<g id="edge74" class="edge"><title>DB&#45;&gt;ClusterNodeLaunchConfig</title>
<path fill="none" stroke="black" d="M2175.59,-287.796C2178.04,-266.852 2199.07,-232.268 2228.5,-216 2305.7,-173.331 2560.2,-164.768 2699.57,-163.215"/>
<polygon fill="black" stroke="black" points="2699.84,-166.713 2709.81,-163.111 2699.77,-159.713 2699.84,-166.713"/>
</g>
<!-- DB&#45;&gt;ClusterNodeLaunchConfig -->
<g id="edge83" class="edge"><title>DB&#45;&gt;ClusterNodeLaunchConfig</title>
<path fill="none" stroke="black" d="M2188.14,-287.796C2196.04,-266.852 2217.07,-232.268 2246.5,-216 2321.63,-174.476 2564.67,-165.252 2699.47,-163.356"/>
<polygon fill="black" stroke="black" points="2699.82,-166.851 2709.78,-163.222 2699.73,-159.852 2699.82,-166.851"/>
</g>
<!-- DB&#45;&gt;ClusterNodeLaunchConfig -->
<g id="edge84" class="edge"><title>DB&#45;&gt;ClusterNodeLaunchConfig</title>
<path fill="none" stroke="black" d="M2200.68,-287.796C2214.04,-266.852 2235.07,-232.268 2264.5,-216 2337.46,-175.674 2568.79,-165.811 2699.46,-163.539"/>
<polygon fill="black" stroke="black" points="2699.9,-167.032 2709.85,-163.37 2699.79,-160.033 2699.9,-167.032"/>
</g>
<!-- DB&#45;&gt;ClusterNodeLaunchConfig -->
<g id="edge103" class="edge"><title>DB&#45;&gt;ClusterNodeLaunchConfig</title>
<path fill="none" stroke="black" d="M2213.22,-287.796C2232.04,-266.852 2253.07,-232.268 2282.5,-216 2353.27,-176.885 2573.04,-166.431 2699.87,-163.765"/>
<polygon fill="black" stroke="black" points="2700.04,-167.262 2709.96,-163.565 2699.9,-160.263 2700.04,-167.262"/>
</g>
<!-- DB&#45;&gt;ClusterNodeLaunchConfig -->
<g id="edge104" class="edge"><title>DB&#45;&gt;ClusterNodeLaunchConfig</title>
<path fill="none" stroke="black" d="M2213.59,-296.802C2243.41,-278.597 2266.28,-234.916 2300.5,-216 2368.86,-178.216 2576.24,-167.176 2699.6,-164.065"/>
<polygon fill="black" stroke="black" points="2699.89,-167.559 2709.8,-163.821 2699.72,-160.561 2699.89,-167.559"/>
</g>
<!-- DBEndpointAddress -->
<g id="node68" class="node"><title>DBEndpointAddress</title>
<path fill="lightgrey" stroke="black" d="M4373,-36C4373,-36 4268,-36 4268,-36 4262,-36 4256,-30 4256,-24 4256,-24 4256,-12 4256,-12 4256,-6 4262,-0 4268,-0 4268,-0 4373,-0 4373,-0 4379,-0 4385,-6 4385,-12 4385,-12 4385,-24 4385,-24 4385,-30 4379,-36 4373,-36"/>
<text text-anchor="middle" x="4320.5" y="-14.3" font-family="Times,serif" font-size="14.00">DBEndpointAddress</text>
</g>
<!-- DB&#45;&gt;DBEndpointAddress -->
<g id="edge120" class="edge"><title>DB&#45;&gt;DBEndpointAddress</title>
<path fill="none" stroke="black" d="M2213.87,-301.332C2432.56,-272.022 3896.92,-75.7686 4245.93,-28.994"/>
<polygon fill="black" stroke="black" points="4246.48,-32.4515 4255.93,-27.6541 4245.55,-25.5135 4246.48,-32.4515"/>
</g>
<!-- ClusterNodeGroup -->
<g id="node4" class="node"><title>ClusterNodeGroup</title>
<polygon fill="none" stroke="black" points="1507,-108 1388,-108 1388,-72 1507,-72 1507,-108"/>
<text text-anchor="middle" x="1447.5" y="-86.3" font-family="Times,serif" font-size="14.00">ClusterNodeGroup</text>
</g>
<!-- EBSRestoreVol -->
<g id="node5" class="node"><title>EBSRestoreVol</title>
<polygon fill="none" stroke="black" points="1169,-324 1066,-324 1066,-288 1169,-288 1169,-324"/>
<text text-anchor="middle" x="1117.5" y="-302.3" font-family="Times,serif" font-size="14.00">EBSRestoreVol</text>
</g>
<!-- NFSServer -->
<g id="node14" class="node"><title>NFSServer</title>
<polygon fill="none" stroke="black" points="1263,-252 1186,-252 1186,-216 1263,-216 1263,-252"/>
<text text-anchor="middle" x="1224.5" y="-230.3" font-family="Times,serif" font-size="14.00">NFSServer</text>
</g>
<!-- EBSRestoreVol&#45;&gt;NFSServer -->
<g id="edge115" class="edge"><title>EBSRestoreVol&#45;&gt;NFSServer</title>
<path fill="none" stroke="black" d="M1143.68,-287.876C1157.54,-278.808 1174.74,-267.552 1189.71,-257.759"/>
<polygon fill="black" stroke="black" points="1191.77,-260.593 1198.22,-252.19 1187.94,-254.735 1191.77,-260.593"/>
</g>
<!-- SecurityGroup -->
<g id="node6" class="node"><title>SecurityGroup</title>
<polygon fill="none" stroke="black" points="1583.5,-396 1487.5,-396 1487.5,-360 1583.5,-360 1583.5,-396"/>
<text text-anchor="middle" x="1535.5" y="-374.3" font-family="Times,serif" font-size="14.00">SecurityGroup</text>
</g>
<!-- SecurityGroup&#45;&gt;DB -->
<g id="edge11" class="edge"><title>SecurityGroup&#45;&gt;DB</title>
<path fill="none" stroke="black" d="M1583.63,-371.824C1708.02,-358.45 2038.16,-322.95 2149.35,-310.994"/>
<polygon fill="black" stroke="black" points="2149.85,-314.462 2159.41,-309.912 2149.1,-307.502 2149.85,-314.462"/>
</g>
<!-- SecurityGroupIngress -->
<g id="node7" class="node"><title>SecurityGroupIngress</title>
<polygon fill="none" stroke="black" points="1699,-324 1564,-324 1564,-288 1699,-288 1699,-324"/>
<text text-anchor="middle" x="1631.5" y="-302.3" font-family="Times,serif" font-size="14.00">SecurityGroupIngress</text>
</g>
<!-- SecurityGroup&#45;&gt;SecurityGroupIngress -->
<g id="edge33" class="edge"><title>SecurityGroup&#45;&gt;SecurityGroupIngress</title>
<path fill="none" stroke="black" d="M1553.31,-359.697C1564.71,-350.711 1579.78,-339.614 1593.68,-329.924"/>
<polygon fill="black" stroke="black" points="1595.89,-332.654 1602.15,-324.104 1591.92,-326.885 1595.89,-332.654"/>
</g>
<!-- SecurityGroup&#45;&gt;SecurityGroupIngress -->
<g id="edge34" class="edge"><title>SecurityGroup&#45;&gt;SecurityGroupIngress</title>
<path fill="none" stroke="black" d="M1564.88,-359.876C1577.89,-351.063 1592.99,-340.182 1605.57,-330.586"/>
<polygon fill="black" stroke="black" points="1608.07,-333.081 1613.83,-324.19 1603.78,-327.548 1608.07,-333.081"/>
</g>
<!-- LoadBalancer -->
<g id="node10" class="node"><title>LoadBalancer</title>
<polygon fill="none" stroke="black" points="720.5,-324 628.5,-324 628.5,-288 720.5,-288 720.5,-324"/>
<text text-anchor="middle" x="674.5" y="-302.3" font-family="Times,serif" font-size="14.00">LoadBalancer</text>
</g>
<!-- SecurityGroup&#45;&gt;LoadBalancer -->
<g id="edge46" class="edge"><title>SecurityGroup&#45;&gt;LoadBalancer</title>
<path fill="none" stroke="black" d="M1487.36,-373.087C1339.05,-361.028 889.493,-324.479 730.749,-311.573"/>
<polygon fill="black" stroke="black" points="730.97,-308.08 720.72,-310.758 730.403,-315.057 730.97,-308.08"/>
</g>
<!-- SecurityGroup&#45;&gt;ClusterNodeLaunchConfig -->
<g id="edge56" class="edge"><title>SecurityGroup&#45;&gt;ClusterNodeLaunchConfig</title>
<path fill="none" stroke="black" d="M1583.52,-370.39C1620.12,-363.516 1670.37,-349.961 1707.5,-324 1756.89,-289.467 1736.24,-244.21 1789.5,-216 1868.66,-174.069 2467.49,-165.304 2699.79,-163.478"/>
<polygon fill="black" stroke="black" points="2699.93,-166.977 2709.91,-163.401 2699.88,-159.977 2699.93,-166.977"/>
</g>
<!-- SecurityGroup&#45;&gt;NFSServer -->
<g id="edge119" class="edge"><title>SecurityGroup&#45;&gt;NFSServer</title>
<path fill="none" stroke="black" d="M1497.99,-359.871C1441.13,-333.911 1333.22,-284.64 1271.31,-256.371"/>
<polygon fill="black" stroke="black" points="1272.7,-253.159 1262.15,-252.189 1269.79,-259.527 1272.7,-253.159"/>
</g>
<!-- SGname -->
<g id="node70" class="node"><title>SGname</title>
<path fill="lightgrey" stroke="black" d="M1555.5,-36C1555.5,-36 1515.5,-36 1515.5,-36 1509.5,-36 1503.5,-30 1503.5,-24 1503.5,-24 1503.5,-12 1503.5,-12 1503.5,-6 1509.5,-0 1515.5,-0 1515.5,-0 1555.5,-0 1555.5,-0 1561.5,-0 1567.5,-6 1567.5,-12 1567.5,-12 1567.5,-24 1567.5,-24 1567.5,-30 1561.5,-36 1555.5,-36"/>
<text text-anchor="middle" x="1535.5" y="-14.3" font-family="Times,serif" font-size="14.00">SGname</text>
</g>
<!-- SecurityGroup&#45;&gt;SGname -->
<g id="edge124" class="edge"><title>SecurityGroup&#45;&gt;SGname</title>
<path fill="none" stroke="black" d="M1535.5,-359.951C1535.5,-333.292 1535.5,-280.115 1535.5,-235 1535.5,-235 1535.5,-235 1535.5,-161 1535.5,-120.996 1535.5,-74.6528 1535.5,-46.0798"/>
<polygon fill="black" stroke="black" points="1539,-46.0492 1535.5,-36.0493 1532,-46.0493 1539,-46.0492"/>
</g>
<!-- DBSubnetGroup -->
<g id="node8" class="node"><title>DBSubnetGroup</title>
<polygon fill="none" stroke="black" points="1939,-396 1832,-396 1832,-360 1939,-360 1939,-396"/>
<text text-anchor="middle" x="1885.5" y="-374.3" font-family="Times,serif" font-size="14.00">DBSubnetGroup</text>
</g>
<!-- DBSubnetGroup&#45;&gt;DB -->
<g id="edge16" class="edge"><title>DBSubnetGroup&#45;&gt;DB</title>
<path fill="none" stroke="black" d="M1939.3,-363.439C1944.1,-362.263 1948.88,-361.102 1953.5,-360 2022.53,-343.523 2103.34,-325.402 2149.37,-315.19"/>
<polygon fill="black" stroke="black" points="2150.19,-318.593 2159.19,-313.013 2148.67,-311.759 2150.19,-318.593"/>
</g>
<!-- CrowdClusterNodeInstanceProfile -->
<g id="node9" class="node"><title>CrowdClusterNodeInstanceProfile</title>
<polygon fill="none" stroke="black" points="2526,-324 2323,-324 2323,-288 2526,-288 2526,-324"/>
<text text-anchor="middle" x="2424.5" y="-302.3" font-family="Times,serif" font-size="14.00">CrowdClusterNodeInstanceProfile</text>
</g>
<!-- CrowdClusterNodeInstanceProfile&#45;&gt;ClusterNodeLaunchConfig -->
<g id="edge57" class="edge"><title>CrowdClusterNodeInstanceProfile&#45;&gt;ClusterNodeLaunchConfig</title>
<path fill="none" stroke="black" d="M2441.71,-287.723C2463.01,-267.367 2501.3,-234.039 2540.5,-216 2590.56,-192.965 2650.86,-179.816 2699.81,-172.378"/>
<polygon fill="black" stroke="black" points="2700.37,-175.833 2709.76,-170.92 2699.36,-168.907 2700.37,-175.833"/>
</g>
<!-- CrowdClusterNodeInstanceProfile&#45;&gt;NFSServer -->
<g id="edge116" class="edge"><title>CrowdClusterNodeInstanceProfile&#45;&gt;NFSServer</title>
<path fill="none" stroke="black" d="M2322.82,-295.826C2290.74,-293.097 2255.15,-290.241 2222.5,-288 1858.15,-263 1418.28,-243.281 1273.38,-237.06"/>
<polygon fill="black" stroke="black" points="1273.2,-233.549 1263.06,-236.618 1272.9,-240.543 1273.2,-233.549"/>
</g>
<!-- LoadBalancer&#45;&gt;LoadBalancerCname -->
<g id="edge5" class="edge"><title>LoadBalancer&#45;&gt;LoadBalancerCname</title>
<path fill="none" stroke="black" d="M628.388,-293.831C583.399,-282.934 514.18,-266.168 461.128,-253.318"/>
<polygon fill="black" stroke="black" points="461.625,-249.838 451.082,-250.885 459.977,-256.641 461.625,-249.838"/>
</g>
<!-- LoadBalancer&#45;&gt;ClusterNodeGroup -->
<g id="edge24" class="edge"><title>LoadBalancer&#45;&gt;ClusterNodeGroup</title>
<path fill="none" stroke="black" d="M691.805,-287.805C727.561,-253.496 813.702,-177.008 902.5,-144 987.871,-112.266 1250.77,-98.3447 1377.62,-93.3493"/>
<polygon fill="black" stroke="black" points="1378.13,-96.8323 1387.98,-92.949 1377.86,-89.8375 1378.13,-96.8323"/>
</g>
<!-- LoadBalancer&#45;&gt;ClusterNodeLaunchConfig -->
<g id="edge91" class="edge"><title>LoadBalancer&#45;&gt;ClusterNodeLaunchConfig</title>
<path fill="none" stroke="black" d="M720.898,-296.577C766.499,-287.693 837.745,-272.186 897.5,-252 934.823,-239.392 940.086,-224.74 978.5,-216 1146.63,-177.744 2354.28,-166.153 2699.53,-163.603"/>
<polygon fill="black" stroke="black" points="2699.76,-167.102 2709.74,-163.529 2699.71,-160.102 2699.76,-167.102"/>
</g>
<!-- LoadBalancerURL -->
<g id="node69" class="node"><title>LoadBalancerURL</title>
<path fill="lightgrey" stroke="black" d="M722,-36C722,-36 627,-36 627,-36 621,-36 615,-30 615,-24 615,-24 615,-12 615,-12 615,-6 621,-0 627,-0 627,-0 722,-0 722,-0 728,-0 734,-6 734,-12 734,-12 734,-24 734,-24 734,-30 728,-36 722,-36"/>
<text text-anchor="middle" x="674.5" y="-14.3" font-family="Times,serif" font-size="14.00">LoadBalancerURL</text>
</g>
<!-- LoadBalancer&#45;&gt;LoadBalancerURL -->
<g id="edge121" class="edge"><title>LoadBalancer&#45;&gt;LoadBalancerURL</title>
<path fill="none" stroke="black" d="M674.5,-287.966C674.5,-240.291 674.5,-105.185 674.5,-46.63"/>
<polygon fill="black" stroke="black" points="678,-46.3064 674.5,-36.3065 671,-46.3065 678,-46.3064"/>
</g>
<!-- LoadBalancer&#45;&gt;ServiceURL -->
<g id="edge129" class="edge"><title>LoadBalancer&#45;&gt;ServiceURL</title>
<path fill="none" stroke="black" d="M645.268,-287.747C579.787,-249.101 416.339,-152.651 279.5,-72 262.524,-61.9945 243.742,-50.933 227.747,-41.5152"/>
<polygon fill="black" stroke="black" points="229.08,-38.238 218.687,-36.1804 225.528,-44.2701 229.08,-38.238"/>
</g>
<!-- CrowdClusterNodeRole -->
<g id="node11" class="node"><title>CrowdClusterNodeRole</title>
<polygon fill="none" stroke="black" points="2509,-396 2362,-396 2362,-360 2509,-360 2509,-396"/>
<text text-anchor="middle" x="2435.5" y="-374.3" font-family="Times,serif" font-size="14.00">CrowdClusterNodeRole</text>
</g>
<!-- CrowdClusterNodeRole&#45;&gt;CrowdClusterNodeInstanceProfile -->
<g id="edge36" class="edge"><title>CrowdClusterNodeRole&#45;&gt;CrowdClusterNodeInstanceProfile</title>
<path fill="none" stroke="black" d="M2432.78,-359.697C2431.57,-351.983 2430.11,-342.712 2428.76,-334.112"/>
<polygon fill="black" stroke="black" points="2432.2,-333.44 2427.19,-324.104 2425.28,-334.526 2432.2,-333.44"/>
</g>
<!-- NFSR53name -->
<g id="node12" class="node"><title>NFSR53name</title>
<polygon fill="none" stroke="black" points="505.5,-36 411.5,-36 411.5,-0 505.5,-0 505.5,-36"/>
<text text-anchor="middle" x="458.5" y="-14.3" font-family="Times,serif" font-size="14.00">NFSR53name</text>
</g>
<!-- ClusterNodeLaunchConfig&#45;&gt;ClusterNodeGroup -->
<g id="edge20" class="edge"><title>ClusterNodeLaunchConfig&#45;&gt;ClusterNodeGroup</title>
<path fill="none" stroke="black" d="M2709.95,-156.753C2466.02,-144.048 1744.84,-106.486 1517.18,-94.6294"/>
<polygon fill="black" stroke="black" points="1517.21,-91.126 1507.04,-94.1011 1516.85,-98.1166 1517.21,-91.126"/>
</g>
<!-- NFSServer&#45;&gt;NFSR53name -->
<g id="edge51" class="edge"><title>NFSServer&#45;&gt;NFSR53name</title>
<path fill="none" stroke="black" d="M1185.88,-222.109C1093.45,-196.054 852.164,-128.116 650.5,-72 605.239,-59.4056 553.943,-45.2519 515.765,-34.7409"/>
<polygon fill="black" stroke="black" points="516.428,-31.2934 505.857,-32.0141 514.57,-38.0424 516.428,-31.2934"/>
</g>
<!-- NFSServer&#45;&gt;ClusterNodeLaunchConfig -->
<g id="edge102" class="edge"><title>NFSServer&#45;&gt;ClusterNodeLaunchConfig</title>
<path fill="none" stroke="black" d="M1263.29,-224.255C1278.82,-221.104 1296.93,-217.868 1313.5,-216 1583.96,-185.501 2420.11,-169.169 2699.51,-164.456"/>
<polygon fill="black" stroke="black" points="2699.67,-167.954 2709.61,-164.286 2699.56,-160.955 2699.67,-167.954"/>
</g>
<!-- DBPoolMaxSize -->
<g id="node15" class="node"><title>DBPoolMaxSize</title>
<path fill="lightgrey" stroke="black" d="M2312,-468C2312,-468 2227,-468 2227,-468 2221,-468 2215,-462 2215,-456 2215,-456 2215,-444 2215,-444 2215,-438 2221,-432 2227,-432 2227,-432 2312,-432 2312,-432 2318,-432 2324,-438 2324,-444 2324,-444 2324,-456 2324,-456 2324,-462 2318,-468 2312,-468"/>
<text text-anchor="middle" x="2269.5" y="-446.3" font-family="Times,serif" font-size="14.00">DBPoolMaxSize</text>
</g>
<!-- DBPoolMaxSize&#45;&gt;ClusterNodeLaunchConfig -->
<g id="edge72" class="edge"><title>DBPoolMaxSize&#45;&gt;ClusterNodeLaunchConfig</title>
<path fill="none" stroke="black" d="M2324.02,-433.756C2326.88,-433.124 2329.72,-432.533 2332.5,-432 2401.05,-418.872 2586.07,-434.178 2644.5,-396 2683.27,-370.669 2723.39,-254.243 2749.5,-216 2755.92,-206.595 2763.51,-196.708 2770.45,-188.055"/>
<polygon fill="black" stroke="black" points="2773.25,-190.156 2776.86,-180.192 2767.83,-185.736 2773.25,-190.156"/>
</g>
<!-- TomcatEnableLookups -->
<g id="node16" class="node"><title>TomcatEnableLookups</title>
<path fill="lightgrey" stroke="black" d="M2473,-468C2473,-468 2354,-468 2354,-468 2348,-468 2342,-462 2342,-456 2342,-456 2342,-444 2342,-444 2342,-438 2348,-432 2354,-432 2354,-432 2473,-432 2473,-432 2479,-432 2485,-438 2485,-444 2485,-444 2485,-456 2485,-456 2485,-462 2479,-468 2473,-468"/>
<text text-anchor="middle" x="2413.5" y="-446.3" font-family="Times,serif" font-size="14.00">TomcatEnableLookups</text>
</g>
<!-- TomcatEnableLookups&#45;&gt;ClusterNodeLaunchConfig -->
<g id="edge96" class="edge"><title>TomcatEnableLookups&#45;&gt;ClusterNodeLaunchConfig</title>
<path fill="none" stroke="black" d="M2485.04,-433.914C2488.24,-433.263 2491.4,-432.622 2494.5,-432 2577.91,-415.262 2615.36,-448.242 2682.5,-396 2691.37,-389.1 2753.68,-248.993 2779.91,-189.428"/>
<polygon fill="black" stroke="black" points="2783.12,-190.828 2783.94,-180.265 2776.71,-188.01 2783.12,-190.828"/>
</g>
<!-- ClusterNodeMin -->
<g id="node17" class="node"><title>ClusterNodeMin</title>
<path fill="lightgrey" stroke="black" d="M6687.5,-468C6687.5,-468 6603.5,-468 6603.5,-468 6597.5,-468 6591.5,-462 6591.5,-456 6591.5,-456 6591.5,-444 6591.5,-444 6591.5,-438 6597.5,-432 6603.5,-432 6603.5,-432 6687.5,-432 6687.5,-432 6693.5,-432 6699.5,-438 6699.5,-444 6699.5,-444 6699.5,-456 6699.5,-456 6699.5,-462 6693.5,-468 6687.5,-468"/>
<text text-anchor="middle" x="6645.5" y="-446.3" font-family="Times,serif" font-size="14.00">ClusterNodeMin</text>
</g>
<!-- ClusterNodeMin&#45;&gt;ClusterNodeGroup -->
<g id="edge18" class="edge"><title>ClusterNodeMin&#45;&gt;ClusterNodeGroup</title>
<path fill="none" stroke="black" d="M6626.9,-431.623C6606.16,-405.806 6576.5,-355.174 6576.5,-307 6576.5,-307 6576.5,-307 6576.5,-233 6576.5,-100.176 2129.84,-91.5892 1517.16,-91.0376"/>
<polygon fill="black" stroke="black" points="1517.15,-87.5377 1507.15,-91.029 1517.15,-94.5377 1517.15,-87.5377"/>
</g>
<!-- ClusterNodeMin&#45;&gt;ClusterNodeGroup -->
<g id="edge21" class="edge"><title>ClusterNodeMin&#45;&gt;ClusterNodeGroup</title>
<path fill="none" stroke="black" d="M6638.65,-431.623C6624.16,-405.806 6594.5,-355.174 6594.5,-307 6594.5,-307 6594.5,-307 6594.5,-233 6594.5,-99.9331 2131.58,-91.5583 1517.27,-91.0346"/>
<polygon fill="black" stroke="black" points="1517.24,-87.5347 1507.23,-91.0265 1517.23,-94.5347 1517.24,-87.5347"/>
</g>
<!-- DBTimeBetweenEvictionRunsMillis -->
<g id="node18" class="node"><title>DBTimeBetweenEvictionRunsMillis</title>
<path fill="lightgrey" stroke="black" d="M2709.5,-468C2709.5,-468 2515.5,-468 2515.5,-468 2509.5,-468 2503.5,-462 2503.5,-456 2503.5,-456 2503.5,-444 2503.5,-444 2503.5,-438 2509.5,-432 2515.5,-432 2515.5,-432 2709.5,-432 2709.5,-432 2715.5,-432 2721.5,-438 2721.5,-444 2721.5,-444 2721.5,-456 2721.5,-456 2721.5,-462 2715.5,-468 2709.5,-468"/>
<text text-anchor="middle" x="2612.5" y="-446.3" font-family="Times,serif" font-size="14.00">DBTimeBetweenEvictionRunsMillis</text>
</g>
<!-- DBTimeBetweenEvictionRunsMillis&#45;&gt;ClusterNodeLaunchConfig -->
<g id="edge79" class="edge"><title>DBTimeBetweenEvictionRunsMillis&#45;&gt;ClusterNodeLaunchConfig</title>
<path fill="none" stroke="black" d="M2668.3,-431.906C2687.13,-423.702 2706.83,-412.064 2720.5,-396 2747.35,-364.452 2774.69,-244.703 2786.04,-190.249"/>
<polygon fill="black" stroke="black" points="2789.51,-190.775 2788.1,-180.274 2782.65,-189.364 2789.51,-190.775"/>
</g>
<!-- DBPassword -->
<g id="node19" class="node"><title>DBPassword</title>
<path fill="lightgrey" stroke="black" d="M2815,-468C2815,-468 2752,-468 2752,-468 2746,-468 2740,-462 2740,-456 2740,-456 2740,-444 2740,-444 2740,-438 2746,-432 2752,-432 2752,-432 2815,-432 2815,-432 2821,-432 2827,-438 2827,-444 2827,-444 2827,-456 2827,-456 2827,-462 2821,-468 2815,-468"/>
<text text-anchor="middle" x="2783.5" y="-446.3" font-family="Times,serif" font-size="14.00">DBPassword</text>
</g>
<!-- DBPassword&#45;&gt;ClusterNodeLaunchConfig -->
<g id="edge82" class="edge"><title>DBPassword&#45;&gt;ClusterNodeLaunchConfig</title>
<path fill="none" stroke="black" d="M2780.56,-431.966C2777.72,-384.192 2781.26,-248.623 2786.57,-190.266"/>
<polygon fill="black" stroke="black" points="2790.05,-190.609 2787.58,-180.306 2783.09,-189.902 2790.05,-190.609"/>
</g>
<!-- DBPassword&#45;&gt;ClusterNodeLaunchConfig -->
<g id="edge105" class="edge"><title>DBPassword&#45;&gt;ClusterNodeLaunchConfig</title>
<path fill="none" stroke="black" d="M2787.39,-431.966C2792.9,-384.291 2796.93,-249.185 2794.92,-190.63"/>
<polygon fill="black" stroke="black" points="2798.4,-190.138 2794.45,-180.306 2791.41,-190.454 2798.4,-190.138"/>
</g>
<!-- EBSSnapshotId -->
<g id="node20" class="node"><title>EBSSnapshotId</title>
<path fill="lightgrey" stroke="black" d="M1216.5,-468C1216.5,-468 1138.5,-468 1138.5,-468 1132.5,-468 1126.5,-462 1126.5,-456 1126.5,-456 1126.5,-444 1126.5,-444 1126.5,-438 1132.5,-432 1138.5,-432 1138.5,-432 1216.5,-432 1216.5,-432 1222.5,-432 1228.5,-438 1228.5,-444 1228.5,-444 1228.5,-456 1228.5,-456 1228.5,-462 1222.5,-468 1216.5,-468"/>
<text text-anchor="middle" x="1177.5" y="-446.3" font-family="Times,serif" font-size="14.00">EBSSnapshotId</text>
</g>
<!-- EBSSnapshotId&#45;&gt;EBSRestoreVol -->
<g id="edge25" class="edge"><title>EBSSnapshotId&#45;&gt;EBSRestoreVol</title>
<path fill="none" stroke="black" d="M1170.26,-431.871C1159.95,-407.457 1140.92,-362.426 1128.75,-333.635"/>
<polygon fill="black" stroke="black" points="1131.88,-332.038 1124.76,-324.189 1125.43,-334.763 1131.88,-332.038"/>
</g>
<!-- DBMaxWaitMillis -->
<g id="node21" class="node"><title>DBMaxWaitMillis</title>
<path fill="lightgrey" stroke="black" d="M2954,-468C2954,-468 2857,-468 2857,-468 2851,-468 2845,-462 2845,-456 2845,-456 2845,-444 2845,-444 2845,-438 2851,-432 2857,-432 2857,-432 2954,-432 2954,-432 2960,-432 2966,-438 2966,-444 2966,-444 2966,-456 2966,-456 2966,-462 2960,-468 2954,-468"/>
<text text-anchor="middle" x="2905.5" y="-446.3" font-family="Times,serif" font-size="14.00">DBMaxWaitMillis</text>
</g>
<!-- DBMaxWaitMillis&#45;&gt;ClusterNodeLaunchConfig -->
<g id="edge68" class="edge"><title>DBMaxWaitMillis&#45;&gt;ClusterNodeLaunchConfig</title>
<path fill="none" stroke="black" d="M2898.79,-431.713C2883.75,-393 2846.07,-296.42 2813.5,-216 2810.01,-207.372 2806.13,-197.981 2802.62,-189.535"/>
<polygon fill="black" stroke="black" points="2805.79,-188.038 2798.71,-180.155 2799.33,-190.732 2805.79,-188.038"/>
</g>
<!-- ClusterNodeVolumeSize -->
<g id="node22" class="node"><title>ClusterNodeVolumeSize</title>
<path fill="lightgrey" stroke="black" d="M3124.5,-468C3124.5,-468 2996.5,-468 2996.5,-468 2990.5,-468 2984.5,-462 2984.5,-456 2984.5,-456 2984.5,-444 2984.5,-444 2984.5,-438 2990.5,-432 2996.5,-432 2996.5,-432 3124.5,-432 3124.5,-432 3130.5,-432 3136.5,-438 3136.5,-444 3136.5,-444 3136.5,-456 3136.5,-456 3136.5,-462 3130.5,-468 3124.5,-468"/>
<text text-anchor="middle" x="3060.5" y="-446.3" font-family="Times,serif" font-size="14.00">ClusterNodeVolumeSize</text>
</g>
<!-- ClusterNodeVolumeSize&#45;&gt;ClusterNodeLaunchConfig -->
<g id="edge54" class="edge"><title>ClusterNodeVolumeSize&#45;&gt;ClusterNodeLaunchConfig</title>
<path fill="none" stroke="black" d="M3044.48,-431.966C2998.89,-383.498 2868.31,-244.666 2814.8,-187.773"/>
<polygon fill="black" stroke="black" points="2817.18,-185.193 2807.78,-180.306 2812.08,-189.989 2817.18,-185.193"/>
</g>
<!-- KeyPairName -->
<g id="node23" class="node"><title>KeyPairName</title>
<path fill="lightgrey" stroke="black" d="M2184.5,-468C2184.5,-468 2114.5,-468 2114.5,-468 2108.5,-468 2102.5,-462 2102.5,-456 2102.5,-456 2102.5,-444 2102.5,-444 2102.5,-438 2108.5,-432 2114.5,-432 2114.5,-432 2184.5,-432 2184.5,-432 2190.5,-432 2196.5,-438 2196.5,-444 2196.5,-444 2196.5,-456 2196.5,-456 2196.5,-462 2190.5,-468 2184.5,-468"/>
<text text-anchor="middle" x="2149.5" y="-446.3" font-family="Times,serif" font-size="14.00">KeyPairName</text>
</g>
<!-- KeyPairName&#45;&gt;ClusterNodeLaunchConfig -->
<g id="edge55" class="edge"><title>KeyPairName&#45;&gt;ClusterNodeLaunchConfig</title>
<path fill="none" stroke="black" d="M2196.68,-433.932C2199.65,-433.216 2202.61,-432.563 2205.5,-432 2293.32,-414.916 2529.59,-441.705 2606.5,-396 2647.83,-371.442 2694.18,-251.586 2726.5,-216 2736.17,-205.35 2748.06,-195.025 2759.02,-186.361"/>
<polygon fill="black" stroke="black" points="2761.38,-188.96 2767.16,-180.082 2757.1,-183.417 2761.38,-188.96"/>
</g>
<!-- KeyPairName&#45;&gt;NFSServer -->
<g id="edge114" class="edge"><title>KeyPairName&#45;&gt;NFSServer</title>
<path fill="none" stroke="black" d="M2102.29,-434.077C2099.33,-433.325 2096.38,-432.624 2093.5,-432 1974.75,-406.268 1932.27,-448.087 1822.5,-396 1759.15,-365.942 1771.19,-317.335 1707.5,-288 1631.03,-252.777 1380.18,-240.26 1273.36,-236.455"/>
<polygon fill="black" stroke="black" points="1273.3,-232.951 1263.18,-236.103 1273.05,-239.947 1273.3,-232.951"/>
</g>
<!-- DBTestWhileIdle -->
<g id="node24" class="node"><title>DBTestWhileIdle</title>
<path fill="lightgrey" stroke="black" d="M3256,-468C3256,-468 3167,-468 3167,-468 3161,-468 3155,-462 3155,-456 3155,-456 3155,-444 3155,-444 3155,-438 3161,-432 3167,-432 3167,-432 3256,-432 3256,-432 3262,-432 3268,-438 3268,-444 3268,-444 3268,-456 3268,-456 3268,-462 3262,-468 3256,-468"/>
<text text-anchor="middle" x="3211.5" y="-446.3" font-family="Times,serif" font-size="14.00">DBTestWhileIdle</text>
</g>
<!-- DBTestWhileIdle&#45;&gt;ClusterNodeLaunchConfig -->
<g id="edge78" class="edge"><title>DBTestWhileIdle&#45;&gt;ClusterNodeLaunchConfig</title>
<path fill="none" stroke="black" d="M3186.96,-431.851C3131.31,-393.019 2991.12,-295.558 2872.5,-216 2857.47,-205.923 2840.76,-194.948 2826.44,-185.613"/>
<polygon fill="black" stroke="black" points="2828.16,-182.555 2817.86,-180.035 2824.34,-188.422 2828.16,-182.555"/>
</g>
<!-- LocalAnsibleGitRepo -->
<g id="node25" class="node"><title>LocalAnsibleGitRepo</title>
<path fill="lightgrey" stroke="black" d="M3409,-468C3409,-468 3298,-468 3298,-468 3292,-468 3286,-462 3286,-456 3286,-456 3286,-444 3286,-444 3286,-438 3292,-432 3298,-432 3298,-432 3409,-432 3409,-432 3415,-432 3421,-438 3421,-444 3421,-444 3421,-456 3421,-456 3421,-462 3415,-468 3409,-468"/>
<text text-anchor="middle" x="3353.5" y="-446.3" font-family="Times,serif" font-size="14.00">LocalAnsibleGitRepo</text>
</g>
<!-- LocalAnsibleGitRepo&#45;&gt;ClusterNodeLaunchConfig -->
<g id="edge87" class="edge"><title>LocalAnsibleGitRepo&#45;&gt;ClusterNodeLaunchConfig</title>
<path fill="none" stroke="black" d="M3323.15,-431.976C3252.18,-392.381 3069.46,-291.714 2912.5,-216 2889.56,-204.933 2863.75,-193.493 2841.88,-184.087"/>
<polygon fill="black" stroke="black" points="2843.02,-180.769 2832.45,-180.052 2840.26,-187.204 2843.02,-180.769"/>
</g>
<!-- TomcatRedirectPort -->
<g id="node26" class="node"><title>TomcatRedirectPort</title>
<path fill="lightgrey" stroke="black" d="M3554,-468C3554,-468 3451,-468 3451,-468 3445,-468 3439,-462 3439,-456 3439,-456 3439,-444 3439,-444 3439,-438 3445,-432 3451,-432 3451,-432 3554,-432 3554,-432 3560,-432 3566,-438 3566,-444 3566,-444 3566,-456 3566,-456 3566,-462 3560,-468 3554,-468"/>
<text text-anchor="middle" x="3502.5" y="-446.3" font-family="Times,serif" font-size="14.00">TomcatRedirectPort</text>
</g>
<!-- TomcatRedirectPort&#45;&gt;ClusterNodeLaunchConfig -->
<g id="edge100" class="edge"><title>TomcatRedirectPort&#45;&gt;ClusterNodeLaunchConfig</title>
<path fill="none" stroke="black" d="M3466.22,-431.87C3379.8,-391.405 3154.5,-287.905 2960.5,-216 2928.11,-203.994 2891.6,-192.319 2860.83,-182.996"/>
<polygon fill="black" stroke="black" points="2861.63,-179.584 2851.05,-180.055 2859.62,-186.287 2861.63,-179.584"/>
</g>
<!-- InternalSubnets -->
<g id="node27" class="node"><title>InternalSubnets</title>
<path fill="lightgrey" stroke="black" d="M1336,-468C1336,-468 1259,-468 1259,-468 1253,-468 1247,-462 1247,-456 1247,-456 1247,-444 1247,-444 1247,-438 1253,-432 1259,-432 1259,-432 1336,-432 1336,-432 1342,-432 1348,-438 1348,-444 1348,-444 1348,-456 1348,-456 1348,-462 1342,-468 1336,-468"/>
<text text-anchor="middle" x="1297.5" y="-446.3" font-family="Times,serif" font-size="14.00">InternalSubnets</text>
</g>
<!-- InternalSubnets&#45;&gt;ClusterNodeGroup -->
<g id="edge23" class="edge"><title>InternalSubnets&#45;&gt;ClusterNodeGroup</title>
<path fill="none" stroke="black" d="M1327.83,-431.955C1364.54,-408.824 1421.5,-363.785 1421.5,-307 1421.5,-307 1421.5,-307 1421.5,-233 1421.5,-192.553 1431.83,-146.67 1439.47,-118.279"/>
<polygon fill="black" stroke="black" points="1442.94,-118.873 1442.24,-108.302 1436.19,-117.002 1442.94,-118.873"/>
</g>
<!-- InternalSubnets&#45;&gt;DBSubnetGroup -->
<g id="edge35" class="edge"><title>InternalSubnets&#45;&gt;DBSubnetGroup</title>
<path fill="none" stroke="black" d="M1348.07,-433.91C1351.25,-433.199 1354.41,-432.553 1357.5,-432 1559.36,-395.872 1615.1,-428.983 1817.5,-396 1818.96,-395.761 1820.44,-395.507 1821.93,-395.239"/>
<polygon fill="black" stroke="black" points="1822.71,-398.652 1831.85,-393.291 1821.36,-391.784 1822.71,-398.652"/>
</g>
<!-- InternalSubnets&#45;&gt;NFSServer -->
<g id="edge118" class="edge"><title>InternalSubnets&#45;&gt;NFSServer</title>
<path fill="none" stroke="black" d="M1304.55,-431.78C1310.98,-413.735 1318.6,-384.64 1312.5,-360 1302.64,-320.191 1272.62,-282.895 1250.37,-259.584"/>
<polygon fill="black" stroke="black" points="1252.66,-256.922 1243.16,-252.231 1247.66,-261.822 1252.66,-256.922"/>
</g>
<!-- DBMaxIdle -->
<g id="node28" class="node"><title>DBMaxIdle</title>
<path fill="lightgrey" stroke="black" d="M3654.5,-468C3654.5,-468 3596.5,-468 3596.5,-468 3590.5,-468 3584.5,-462 3584.5,-456 3584.5,-456 3584.5,-444 3584.5,-444 3584.5,-438 3590.5,-432 3596.5,-432 3596.5,-432 3654.5,-432 3654.5,-432 3660.5,-432 3666.5,-438 3666.5,-444 3666.5,-444 3666.5,-456 3666.5,-456 3666.5,-462 3660.5,-468 3654.5,-468"/>
<text text-anchor="middle" x="3625.5" y="-446.3" font-family="Times,serif" font-size="14.00">DBMaxIdle</text>
</g>
<!-- DBMaxIdle&#45;&gt;ClusterNodeLaunchConfig -->
<g id="edge67" class="edge"><title>DBMaxIdle&#45;&gt;ClusterNodeLaunchConfig</title>
<path fill="none" stroke="black" d="M3586.88,-431.941C3492,-390.509 3239.22,-283.065 3020.5,-216 2975.8,-202.294 2925.25,-190.241 2883.03,-181.107"/>
<polygon fill="black" stroke="black" points="2883.56,-177.64 2873.05,-178.967 2882.09,-184.484 2883.56,-177.64"/>
</g>
<!-- ClusterNodeInstanceType -->
<g id="node29" class="node"><title>ClusterNodeInstanceType</title>
<path fill="lightgrey" stroke="black" d="M3830.5,-468C3830.5,-468 3696.5,-468 3696.5,-468 3690.5,-468 3684.5,-462 3684.5,-456 3684.5,-456 3684.5,-444 3684.5,-444 3684.5,-438 3690.5,-432 3696.5,-432 3696.5,-432 3830.5,-432 3830.5,-432 3836.5,-432 3842.5,-438 3842.5,-444 3842.5,-444 3842.5,-456 3842.5,-456 3842.5,-462 3836.5,-468 3830.5,-468"/>
<text text-anchor="middle" x="3763.5" y="-446.3" font-family="Times,serif" font-size="14.00">ClusterNodeInstanceType</text>
</g>
<!-- ClusterNodeInstanceType&#45;&gt;ClusterNodeLaunchConfig -->
<g id="edge53" class="edge"><title>ClusterNodeInstanceType&#45;&gt;ClusterNodeLaunchConfig</title>
<path fill="none" stroke="black" d="M3712.53,-431.971C3598.09,-389.904 3313.9,-279.869 3068.5,-216 3007.23,-200.053 2937.56,-187.292 2883.25,-178.291"/>
<polygon fill="black" stroke="black" points="2883.72,-174.822 2873.29,-176.654 2882.59,-181.73 2883.72,-174.822"/>
</g>
<!-- ClusterNodeInstanceType&#45;&gt;ClusterNodeLaunchConfig -->
<g id="edge58" class="edge"><title>ClusterNodeInstanceType&#45;&gt;ClusterNodeLaunchConfig</title>
<path fill="none" stroke="black" d="M3721.42,-431.971C3616.09,-389.904 3331.9,-279.869 3086.5,-216 3019.26,-198.5 2941.91,-184.837 2883.28,-175.769"/>
<polygon fill="black" stroke="black" points="2883.72,-172.294 2873.3,-174.241 2882.66,-179.214 2883.72,-172.294"/>
</g>
<!-- ClusterNodeInstanceType&#45;&gt;ClusterNodeLaunchConfig -->
<g id="edge86" class="edge"><title>ClusterNodeInstanceType&#45;&gt;ClusterNodeLaunchConfig</title>
<path fill="none" stroke="black" d="M3730.32,-431.971C3634.09,-389.904 3349.9,-279.869 3104.5,-216 3031.37,-196.966 2946.27,-182.471 2883.03,-173.49"/>
<polygon fill="black" stroke="black" points="2883.47,-170.017 2873.08,-172.097 2882.49,-176.949 2883.47,-170.017"/>
</g>
<!-- ClusterNodeInstanceType&#45;&gt;NFSServer -->
<g id="edge113" class="edge"><title>ClusterNodeInstanceType&#45;&gt;NFSServer</title>
<path fill="none" stroke="black" d="M3684.08,-434.318C3678.13,-433.411 3672.22,-432.617 3666.5,-432 3005.25,-360.678 2829.65,-484.662 2170.5,-396 1973.08,-369.444 1931.75,-322.185 1735.5,-288 1567,-258.647 1364.73,-243.787 1273.36,-237.99"/>
<polygon fill="black" stroke="black" points="1273.49,-234.492 1263.3,-237.36 1273.06,-241.478 1273.49,-234.492"/>
</g>
<!-- ClusterNodeInstanceType&#45;&gt;NFSServer -->
<g id="edge117" class="edge"><title>ClusterNodeInstanceType&#45;&gt;NFSServer</title>
<path fill="none" stroke="black" d="M3684.96,-432.05C3684.81,-432.034 3684.65,-432.017 3684.5,-432 3023.25,-360.678 2847.65,-484.662 2188.5,-396 1991.08,-369.444 1949.75,-322.185 1753.5,-288 1578.58,-257.529 1367.27,-242.676 1273.37,-237.367"/>
<polygon fill="black" stroke="black" points="1273.49,-233.868 1263.31,-236.809 1273.1,-240.857 1273.49,-233.868"/>
</g>
<!-- CrowdVersion -->
<g id="node30" class="node"><title>CrowdVersion</title>
<path fill="lightgrey" stroke="black" d="M4114.5,-468C4114.5,-468 4042.5,-468 4042.5,-468 4036.5,-468 4030.5,-462 4030.5,-456 4030.5,-456 4030.5,-444 4030.5,-444 4030.5,-438 4036.5,-432 4042.5,-432 4042.5,-432 4114.5,-432 4114.5,-432 4120.5,-432 4126.5,-438 4126.5,-444 4126.5,-444 4126.5,-456 4126.5,-456 4126.5,-462 4120.5,-468 4114.5,-468"/>
<text text-anchor="middle" x="4078.5" y="-446.3" font-family="Times,serif" font-size="14.00">CrowdVersion</text>
</g>
<!-- CrowdVersion&#45;&gt;ClusterNodeLaunchConfig -->
<g id="edge65" class="edge"><title>CrowdVersion&#45;&gt;ClusterNodeLaunchConfig</title>
<path fill="none" stroke="black" d="M4030.68,-431.954C3906.33,-388.372 3561.92,-272.347 3265.5,-216 3134.03,-191.01 2979.65,-176.45 2883.68,-169.11"/>
<polygon fill="black" stroke="black" points="2883.66,-165.599 2873.42,-168.336 2883.13,-172.579 2883.66,-165.599"/>
</g>
<!-- DBPoolMinSize -->
<g id="node31" class="node"><title>DBPoolMinSize</title>
<path fill="lightgrey" stroke="black" d="M4240,-468C4240,-468 4157,-468 4157,-468 4151,-468 4145,-462 4145,-456 4145,-456 4145,-444 4145,-444 4145,-438 4151,-432 4157,-432 4157,-432 4240,-432 4240,-432 4246,-432 4252,-438 4252,-444 4252,-444 4252,-456 4252,-456 4252,-462 4246,-468 4240,-468"/>
<text text-anchor="middle" x="4198.5" y="-446.3" font-family="Times,serif" font-size="14.00">DBPoolMinSize</text>
</g>
<!-- DBPoolMinSize&#45;&gt;ClusterNodeLaunchConfig -->
<g id="edge73" class="edge"><title>DBPoolMinSize&#45;&gt;ClusterNodeLaunchConfig</title>
<path fill="none" stroke="black" d="M4150.7,-431.973C4023.97,-387.657 3668.14,-268.532 3361.5,-216 3194.14,-187.329 2996.3,-173.321 2883.2,-167.175"/>
<polygon fill="black" stroke="black" points="2883.37,-163.679 2873.19,-166.639 2882.99,-170.669 2883.37,-163.679"/>
</g>
<!-- DBTestOnBorrow -->
<g id="node32" class="node"><title>DBTestOnBorrow</title>
<path fill="lightgrey" stroke="black" d="M4374.5,-468C4374.5,-468 4282.5,-468 4282.5,-468 4276.5,-468 4270.5,-462 4270.5,-456 4270.5,-456 4270.5,-444 4270.5,-444 4270.5,-438 4276.5,-432 4282.5,-432 4282.5,-432 4374.5,-432 4374.5,-432 4380.5,-432 4386.5,-438 4386.5,-444 4386.5,-444 4386.5,-456 4386.5,-456 4386.5,-462 4380.5,-468 4374.5,-468"/>
<text text-anchor="middle" x="4328.5" y="-446.3" font-family="Times,serif" font-size="14.00">DBTestOnBorrow</text>
</g>
<!-- DBTestOnBorrow&#45;&gt;ClusterNodeLaunchConfig -->
<g id="edge77" class="edge"><title>DBTestOnBorrow&#45;&gt;ClusterNodeLaunchConfig</title>
<path fill="none" stroke="black" d="M4271.47,-431.989C4169.37,-401.722 3948.42,-337.087 3760.5,-288 3627.41,-253.237 3595.36,-237.505 3459.5,-216 3255.33,-183.682 3012.76,-170.694 2883.47,-165.772"/>
<polygon fill="black" stroke="black" points="2883.34,-162.265 2873.22,-165.389 2883.08,-169.26 2883.34,-162.265"/>
</g>
<!-- VPC -->
<g id="node33" class="node"><title>VPC</title>
<path fill="lightgrey" stroke="black" d="M1628.5,-468C1628.5,-468 1598.5,-468 1598.5,-468 1592.5,-468 1586.5,-462 1586.5,-456 1586.5,-456 1586.5,-444 1586.5,-444 1586.5,-438 1592.5,-432 1598.5,-432 1598.5,-432 1628.5,-432 1628.5,-432 1634.5,-432 1640.5,-438 1640.5,-444 1640.5,-444 1640.5,-456 1640.5,-456 1640.5,-462 1634.5,-468 1628.5,-468"/>
<text text-anchor="middle" x="1613.5" y="-446.3" font-family="Times,serif" font-size="14.00">VPC</text>
</g>
<!-- VPC&#45;&gt;SecurityGroup -->
<g id="edge32" class="edge"><title>VPC&#45;&gt;SecurityGroup</title>
<path fill="none" stroke="black" d="M1594.22,-431.697C1584.58,-423.05 1572.77,-412.449 1562.27,-403.027"/>
<polygon fill="black" stroke="black" points="1564.34,-400.179 1554.56,-396.104 1559.66,-405.388 1564.34,-400.179"/>
</g>
<!-- DBSnapshotName -->
<g id="node34" class="node"><title>DBSnapshotName</title>
<path fill="lightgrey" stroke="black" d="M2072.5,-468C2072.5,-468 1978.5,-468 1978.5,-468 1972.5,-468 1966.5,-462 1966.5,-456 1966.5,-456 1966.5,-444 1966.5,-444 1966.5,-438 1972.5,-432 1978.5,-432 1978.5,-432 2072.5,-432 2072.5,-432 2078.5,-432 2084.5,-438 2084.5,-444 2084.5,-444 2084.5,-456 2084.5,-456 2084.5,-462 2078.5,-468 2072.5,-468"/>
<text text-anchor="middle" x="2025.5" y="-446.3" font-family="Times,serif" font-size="14.00">DBSnapshotName</text>
</g>
<!-- DBSnapshotName&#45;&gt;DB -->
<g id="edge12" class="edge"><title>DBSnapshotName&#45;&gt;DB</title>
<path fill="none" stroke="black" d="M2044.92,-431.871C2073.45,-406.711 2126.8,-359.654 2159.24,-331.042"/>
<polygon fill="black" stroke="black" points="2161.83,-333.429 2167.01,-324.189 2157.2,-328.179 2161.83,-333.429"/>
</g>
<!-- MailEnabled -->
<g id="node35" class="node"><title>MailEnabled</title>
<path fill="lightgrey" stroke="black" d="M6793,-468C6793,-468 6730,-468 6730,-468 6724,-468 6718,-462 6718,-456 6718,-456 6718,-444 6718,-444 6718,-438 6724,-432 6730,-432 6730,-432 6793,-432 6793,-432 6799,-432 6805,-438 6805,-444 6805,-444 6805,-456 6805,-456 6805,-462 6799,-468 6793,-468"/>
<text text-anchor="middle" x="6761.5" y="-446.3" font-family="Times,serif" font-size="14.00">MailEnabled</text>
</g>
<!-- StorageEncrypted -->
<g id="node36" class="node"><title>StorageEncrypted</title>
<path fill="lightgrey" stroke="black" d="M6924,-468C6924,-468 6835,-468 6835,-468 6829,-468 6823,-462 6823,-456 6823,-456 6823,-444 6823,-444 6823,-438 6829,-432 6835,-432 6835,-432 6924,-432 6924,-432 6930,-432 6936,-438 6936,-444 6936,-444 6936,-456 6936,-456 6936,-462 6930,-468 6924,-468"/>
<text text-anchor="middle" x="6879.5" y="-446.3" font-family="Times,serif" font-size="14.00">StorageEncrypted</text>
</g>
<!-- DBRemoveAbandoned -->
<g id="node37" class="node"><title>DBRemoveAbandoned</title>
<path fill="lightgrey" stroke="black" d="M4536,-468C4536,-468 4417,-468 4417,-468 4411,-468 4405,-462 4405,-456 4405,-456 4405,-444 4405,-444 4405,-438 4411,-432 4417,-432 4417,-432 4536,-432 4536,-432 4542,-432 4548,-438 4548,-444 4548,-444 4548,-456 4548,-456 4548,-462 4542,-468 4536,-468"/>
<text text-anchor="middle" x="4476.5" y="-446.3" font-family="Times,serif" font-size="14.00">DBRemoveAbandoned</text>
</g>
<!-- DBRemoveAbandoned&#45;&gt;ClusterNodeLaunchConfig -->
<g id="edge75" class="edge"><title>DBRemoveAbandoned&#45;&gt;ClusterNodeLaunchConfig</title>
<path fill="none" stroke="black" d="M4423.34,-431.939C4283.36,-387.803 3892.31,-269.582 3557.5,-216 3316.16,-177.376 3027.59,-166.891 2883.25,-164.051"/>
<polygon fill="black" stroke="black" points="2883.17,-160.549 2873.11,-163.859 2883.04,-167.548 2883.17,-160.549"/>
</g>
<!-- TomcatDefaultConnectorPort -->
<g id="node38" class="node"><title>TomcatDefaultConnectorPort</title>
<path fill="lightgrey" stroke="black" d="M1096.5,-468C1096.5,-468 942.5,-468 942.5,-468 936.5,-468 930.5,-462 930.5,-456 930.5,-456 930.5,-444 930.5,-444 930.5,-438 936.5,-432 942.5,-432 942.5,-432 1096.5,-432 1096.5,-432 1102.5,-432 1108.5,-438 1108.5,-444 1108.5,-444 1108.5,-456 1108.5,-456 1108.5,-462 1102.5,-468 1096.5,-468"/>
<text text-anchor="middle" x="1019.5" y="-446.3" font-family="Times,serif" font-size="14.00">TomcatDefaultConnectorPort</text>
</g>
<!-- TomcatDefaultConnectorPort&#45;&gt;LoadBalancer -->
<g id="edge38" class="edge"><title>TomcatDefaultConnectorPort&#45;&gt;LoadBalancer</title>
<path fill="none" stroke="black" d="M930.425,-436.496C887.278,-427.75 836.404,-414.335 793.5,-396 752.413,-378.441 709.17,-350.764 685.997,-330.936"/>
<polygon fill="black" stroke="black" points="688.158,-328.169 678.409,-324.02 683.442,-333.343 688.158,-328.169"/>
</g>
<!-- TomcatDefaultConnectorPort&#45;&gt;LoadBalancer -->
<g id="edge40" class="edge"><title>TomcatDefaultConnectorPort&#45;&gt;LoadBalancer</title>
<path fill="none" stroke="black" d="M930.13,-432.954C892.541,-424.279 848.979,-412.017 811.5,-396 769.873,-378.21 726.032,-350.034 699.288,-330.157"/>
<polygon fill="black" stroke="black" points="701.306,-327.295 691.231,-324.02 697.065,-332.863 701.306,-327.295"/>
</g>
<!-- TomcatDefaultConnectorPort&#45;&gt;LoadBalancer -->
<g id="edge42" class="edge"><title>TomcatDefaultConnectorPort&#45;&gt;LoadBalancer</title>
<path fill="none" stroke="black" d="M942.243,-431.91C907.111,-423.305 865.5,-411.385 829.5,-396 787.512,-378.056 743.273,-349.545 712.693,-329.643"/>
<polygon fill="black" stroke="black" points="714.343,-326.541 704.052,-324.02 710.524,-332.408 714.343,-326.541"/>
</g>
<!-- TomcatDefaultConnectorPort&#45;&gt;LoadBalancer -->
<g id="edge43" class="edge"><title>TomcatDefaultConnectorPort&#45;&gt;LoadBalancer</title>
<path fill="none" stroke="black" d="M958.835,-431.91C925.111,-423.305 883.5,-411.385 847.5,-396 805.152,-377.902 760.513,-349.055 725.903,-329.133"/>
<polygon fill="black" stroke="black" points="727.3,-325.901 716.873,-324.02 723.851,-331.993 727.3,-325.901"/>
</g>
<!-- TomcatDefaultConnectorPort&#45;&gt;ClusterNodeLaunchConfig -->
<g id="edge95" class="edge"><title>TomcatDefaultConnectorPort&#45;&gt;ClusterNodeLaunchConfig</title>
<path fill="none" stroke="black" d="M1108.62,-432.968C1111.61,-432.613 1114.58,-432.288 1117.5,-432 1197.75,-424.088 2497.1,-433.467 2568.5,-396 2612.31,-373.013 2662.71,-249.071 2699.5,-216 2712.91,-203.948 2729.5,-193.369 2744.89,-184.897"/>
<polygon fill="black" stroke="black" points="2746.6,-187.952 2753.77,-180.157 2743.3,-181.775 2746.6,-187.952"/>
</g>
<!-- TomcatAcceptCount -->
<g id="node39" class="node"><title>TomcatAcceptCount</title>
<path fill="lightgrey" stroke="black" d="M4684.5,-468C4684.5,-468 4578.5,-468 4578.5,-468 4572.5,-468 4566.5,-462 4566.5,-456 4566.5,-456 4566.5,-444 4566.5,-444 4566.5,-438 4572.5,-432 4578.5,-432 4578.5,-432 4684.5,-432 4684.5,-432 4690.5,-432 4696.5,-438 4696.5,-444 4696.5,-444 4696.5,-456 4696.5,-456 4696.5,-462 4690.5,-468 4684.5,-468"/>
<text text-anchor="middle" x="4631.5" y="-446.3" font-family="Times,serif" font-size="14.00">TomcatAcceptCount</text>
</g>
<!-- TomcatAcceptCount&#45;&gt;ClusterNodeLaunchConfig -->
<g id="edge92" class="edge"><title>TomcatAcceptCount&#45;&gt;ClusterNodeLaunchConfig</title>
<path fill="none" stroke="black" d="M4566.92,-431.953C4451.92,-401.765 4203.97,-337.432 3993.5,-288 3846.94,-253.577 3811.63,-236.633 3662.5,-216 3380.38,-176.968 3042.9,-166.681 2883.51,-163.97"/>
<polygon fill="black" stroke="black" points="2883.32,-160.467 2873.27,-163.802 2883.21,-167.466 2883.32,-160.467"/>
</g>
<!-- TomcatProtocol -->
<g id="node40" class="node"><title>TomcatProtocol</title>
<path fill="lightgrey" stroke="black" d="M4806.5,-468C4806.5,-468 4726.5,-468 4726.5,-468 4720.5,-468 4714.5,-462 4714.5,-456 4714.5,-456 4714.5,-444 4714.5,-444 4714.5,-438 4720.5,-432 4726.5,-432 4726.5,-432 4806.5,-432 4806.5,-432 4812.5,-432 4818.5,-438 4818.5,-444 4818.5,-444 4818.5,-456 4818.5,-456 4818.5,-462 4812.5,-468 4806.5,-468"/>
<text text-anchor="middle" x="4766.5" y="-446.3" font-family="Times,serif" font-size="14.00">TomcatProtocol</text>
</g>
<!-- TomcatProtocol&#45;&gt;ClusterNodeLaunchConfig -->
<g id="edge99" class="edge"><title>TomcatProtocol&#45;&gt;ClusterNodeLaunchConfig</title>
<path fill="none" stroke="black" d="M4714.38,-433.351C4567.33,-389.965 4136.04,-267.937 3768.5,-216 3445.27,-170.325 3056.77,-163.358 2883.14,-162.723"/>
<polygon fill="black" stroke="black" points="2883.03,-159.223 2873.02,-162.692 2883.01,-166.223 2883.03,-159.223"/>
</g>
<!-- CatalinaOpts -->
<g id="node41" class="node"><title>CatalinaOpts</title>
<path fill="lightgrey" stroke="black" d="M4912,-468C4912,-468 4849,-468 4849,-468 4843,-468 4837,-462 4837,-456 4837,-456 4837,-444 4837,-444 4837,-438 4843,-432 4849,-432 4849,-432 4912,-432 4912,-432 4918,-432 4924,-438 4924,-444 4924,-444 4924,-456 4924,-456 4924,-462 4918,-468 4912,-468"/>
<text text-anchor="middle" x="4880.5" y="-446.3" font-family="Times,serif" font-size="14.00">CatalinaOpts</text>
</g>
<!-- CatalinaOpts&#45;&gt;ClusterNodeLaunchConfig -->
<g id="edge63" class="edge"><title>CatalinaOpts&#45;&gt;ClusterNodeLaunchConfig</title>
<path fill="none" stroke="black" d="M4836.9,-434.759C4833.72,-433.801 4830.57,-432.872 4827.5,-432 4572.01,-359.398 4506.77,-345.651 4247.5,-288 4085.67,-252.015 4046.06,-236.079 3881.5,-216 3513.55,-171.105 3071.36,-163.876 2883.32,-162.963"/>
<polygon fill="black" stroke="black" points="2883.22,-159.462 2873.2,-162.918 2883.19,-166.462 2883.22,-159.462"/>
</g>
<!-- CustomDnsName -->
<g id="node42" class="node"><title>CustomDnsName</title>
<path fill="lightgrey" stroke="black" d="M900.5,-468C900.5,-468 810.5,-468 810.5,-468 804.5,-468 798.5,-462 798.5,-456 798.5,-456 798.5,-444 798.5,-444 798.5,-438 804.5,-432 810.5,-432 810.5,-432 900.5,-432 900.5,-432 906.5,-432 912.5,-438 912.5,-444 912.5,-444 912.5,-456 912.5,-456 912.5,-462 906.5,-468 900.5,-468"/>
<text text-anchor="middle" x="855.5" y="-446.3" font-family="Times,serif" font-size="14.00">CustomDnsName</text>
</g>
<!-- CustomDnsName&#45;&gt;ClusterNodeLaunchConfig -->
<g id="edge89" class="edge"><title>CustomDnsName&#45;&gt;ClusterNodeLaunchConfig</title>
<path fill="none" stroke="black" d="M912.577,-433.444C915.582,-432.893 918.57,-432.405 921.5,-432 1009.35,-419.859 2437.55,-434.391 2517.5,-396 2611.63,-350.799 2584.73,-278.345 2668.5,-216 2686.29,-202.757 2707.91,-192.024 2728.02,-183.77"/>
<polygon fill="black" stroke="black" points="2729.43,-186.973 2737.44,-180.034 2726.85,-180.466 2729.43,-186.973"/>
</g>
<!-- CustomDnsName&#45;&gt;ServiceURL -->
<g id="edge125" class="edge"><title>CustomDnsName&#45;&gt;ServiceURL</title>
<path fill="none" stroke="black" d="M798.143,-433.986C674.08,-400.619 385.899,-318.042 310.5,-252 245.175,-194.782 210.065,-93.6792 196.378,-45.7026"/>
<polygon fill="black" stroke="black" points="199.744,-44.7448 193.707,-36.0381 192.997,-46.6091 199.744,-44.7448"/>
</g>
<!-- DBIops -->
<g id="node43" class="node"><title>DBIops</title>
<path fill="lightgrey" stroke="black" d="M1706,-468C1706,-468 1671,-468 1671,-468 1665,-468 1659,-462 1659,-456 1659,-456 1659,-444 1659,-444 1659,-438 1665,-432 1671,-432 1671,-432 1706,-432 1706,-432 1712,-432 1718,-438 1718,-444 1718,-444 1718,-456 1718,-456 1718,-462 1712,-468 1706,-468"/>
<text text-anchor="middle" x="1688.5" y="-446.3" font-family="Times,serif" font-size="14.00">DBIops</text>
</g>
<!-- DBIops&#45;&gt;DB -->
<g id="edge14" class="edge"><title>DBIops&#45;&gt;DB</title>
<path fill="none" stroke="black" d="M1718.03,-435.224C1721.18,-434.024 1724.38,-432.919 1727.5,-432 1822.54,-403.988 1859.99,-442.461 1947.5,-396 1966.94,-385.68 1962.55,-371.192 1981.5,-360 2034.72,-328.569 2106.46,-315.562 2149.44,-310.337"/>
<polygon fill="black" stroke="black" points="2149.92,-313.805 2159.46,-309.197 2149.12,-306.85 2149.92,-313.805"/>
</g>
<!-- DeployEnvironment -->
<g id="node44" class="node"><title>DeployEnvironment</title>
<path fill="lightgrey" stroke="black" d="M5058.5,-468C5058.5,-468 4954.5,-468 4954.5,-468 4948.5,-468 4942.5,-462 4942.5,-456 4942.5,-456 4942.5,-444 4942.5,-444 4942.5,-438 4948.5,-432 4954.5,-432 4954.5,-432 5058.5,-432 5058.5,-432 5064.5,-432 5070.5,-438 5070.5,-444 5070.5,-444 5070.5,-456 5070.5,-456 5070.5,-462 5064.5,-468 5058.5,-468"/>
<text text-anchor="middle" x="5006.5" y="-446.3" font-family="Times,serif" font-size="14.00">DeployEnvironment</text>
</g>
<!-- DeployEnvironment&#45;&gt;ClusterNodeLaunchConfig -->
<g id="edge80" class="edge"><title>DeployEnvironment&#45;&gt;ClusterNodeLaunchConfig</title>
<path fill="none" stroke="black" d="M4942.27,-433.121C4869.75,-415.221 4748.2,-385.315 4643.5,-360 4509.38,-327.571 4476.14,-318.176 4341.5,-288 4189.5,-253.935 4153.04,-235.481 3998.5,-216 3783.09,-188.846 3126.71,-170.949 2883.47,-165.095"/>
<polygon fill="black" stroke="black" points="2883.32,-161.591 2873.24,-164.851 2883.16,-168.589 2883.32,-161.591"/>
</g>
<!-- LocalAnsibleGitSshKeyName -->
<g id="node45" class="node"><title>LocalAnsibleGitSshKeyName</title>
<path fill="lightgrey" stroke="black" d="M5258.5,-468C5258.5,-468 5100.5,-468 5100.5,-468 5094.5,-468 5088.5,-462 5088.5,-456 5088.5,-456 5088.5,-444 5088.5,-444 5088.5,-438 5094.5,-432 5100.5,-432 5100.5,-432 5258.5,-432 5258.5,-432 5264.5,-432 5270.5,-438 5270.5,-444 5270.5,-444 5270.5,-456 5270.5,-456 5270.5,-462 5264.5,-468 5258.5,-468"/>
<text text-anchor="middle" x="5179.5" y="-446.3" font-family="Times,serif" font-size="14.00">LocalAnsibleGitSshKeyName</text>
</g>
<!-- LocalAnsibleGitSshKeyName&#45;&gt;ClusterNodeLaunchConfig -->
<g id="edge88" class="edge"><title>LocalAnsibleGitSshKeyName&#45;&gt;ClusterNodeLaunchConfig</title>
<path fill="none" stroke="black" d="M5119.22,-431.988C4957.42,-387.174 4499.39,-265.903 4109.5,-216 3871.75,-185.57 3141.58,-169.468 2883.24,-164.608"/>
<polygon fill="black" stroke="black" points="2883.21,-161.107 2873.14,-164.419 2883.07,-168.106 2883.21,-161.107"/>
</g>
<!-- TomcatMaxThreads -->
<g id="node46" class="node"><title>TomcatMaxThreads</title>
<path fill="lightgrey" stroke="black" d="M5404.5,-468C5404.5,-468 5300.5,-468 5300.5,-468 5294.5,-468 5288.5,-462 5288.5,-456 5288.5,-456 5288.5,-444 5288.5,-444 5288.5,-438 5294.5,-432 5300.5,-432 5300.5,-432 5404.5,-432 5404.5,-432 5410.5,-432 5416.5,-438 5416.5,-444 5416.5,-444 5416.5,-456 5416.5,-456 5416.5,-462 5410.5,-468 5404.5,-468"/>
<text text-anchor="middle" x="5352.5" y="-446.3" font-family="Times,serif" font-size="14.00">TomcatMaxThreads</text>
</g>
<!-- TomcatMaxThreads&#45;&gt;ClusterNodeLaunchConfig -->
<g id="edge97" class="edge"><title>TomcatMaxThreads&#45;&gt;ClusterNodeLaunchConfig</title>
<path fill="none" stroke="black" d="M5288.42,-434.026C5285.4,-433.337 5282.42,-432.659 5279.5,-432 4987.49,-366.049 4914.86,-347.661 4621.5,-288 4451.77,-253.482 4410.63,-235.223 4238.5,-216 3974.27,-186.491 3158.75,-169.562 2883.4,-164.571"/>
<polygon fill="black" stroke="black" points="2883.11,-161.065 2873.05,-164.384 2882.99,-168.064 2883.11,-161.065"/>
</g>
<!-- SSLCertificateARN -->
<g id="node47" class="node"><title>SSLCertificateARN</title>
<path fill="lightgrey" stroke="black" d="M490,-468C490,-468 389,-468 389,-468 383,-468 377,-462 377,-456 377,-456 377,-444 377,-444 377,-438 383,-432 389,-432 389,-432 490,-432 490,-432 496,-432 502,-438 502,-444 502,-444 502,-456 502,-456 502,-462 496,-468 490,-468"/>
<text text-anchor="middle" x="439.5" y="-446.3" font-family="Times,serif" font-size="14.00">SSLCertificateARN</text>
</g>
<!-- SSLCertificateARN&#45;&gt;LoadBalancer -->
<g id="edge44" class="edge"><title>SSLCertificateARN&#45;&gt;LoadBalancer</title>
<path fill="none" stroke="black" d="M467.846,-431.871C510.28,-406.231 590.345,-357.851 637.388,-329.425"/>
<polygon fill="black" stroke="black" points="639.304,-332.357 646.053,-324.189 635.684,-326.365 639.304,-332.357"/>
</g>
<!-- DBMinEvictableIdleTimeMillis -->
<g id="node48" class="node"><title>DBMinEvictableIdleTimeMillis</title>
<path fill="lightgrey" stroke="black" d="M5616,-468C5616,-468 5447,-468 5447,-468 5441,-468 5435,-462 5435,-456 5435,-456 5435,-444 5435,-444 5435,-438 5441,-432 5447,-432 5447,-432 5616,-432 5616,-432 5622,-432 5628,-438 5628,-444 5628,-444 5628,-456 5628,-456 5628,-462 5622,-468 5616,-468"/>
<text text-anchor="middle" x="5531.5" y="-446.3" font-family="Times,serif" font-size="14.00">DBMinEvictableIdleTimeMillis</text>
</g>
<!-- DBMinEvictableIdleTimeMillis&#45;&gt;ClusterNodeLaunchConfig -->
<g id="edge69" class="edge"><title>DBMinEvictableIdleTimeMillis&#45;&gt;ClusterNodeLaunchConfig</title>
<path fill="none" stroke="black" d="M5465.75,-431.993C5288.69,-387.056 4786.48,-265.243 4360.5,-216 4071.52,-182.594 3173.51,-168.048 2883.1,-164.136"/>
<polygon fill="black" stroke="black" points="2883.08,-160.636 2873.03,-164.002 2882.98,-167.635 2883.08,-160.636"/>
</g>
<!-- DBInstanceClass -->
<g id="node49" class="node"><title>DBInstanceClass</title>
<path fill="lightgrey" stroke="black" d="M1834.5,-468C1834.5,-468 1748.5,-468 1748.5,-468 1742.5,-468 1736.5,-462 1736.5,-456 1736.5,-456 1736.5,-444 1736.5,-444 1736.5,-438 1742.5,-432 1748.5,-432 1748.5,-432 1834.5,-432 1834.5,-432 1840.5,-432 1846.5,-438 1846.5,-444 1846.5,-444 1846.5,-456 1846.5,-456 1846.5,-462 1840.5,-468 1834.5,-468"/>
<text text-anchor="middle" x="1791.5" y="-446.3" font-family="Times,serif" font-size="14.00">DBInstanceClass</text>
</g>
<!-- DBInstanceClass&#45;&gt;DB -->
<g id="edge13" class="edge"><title>DBInstanceClass&#45;&gt;DB</title>
<path fill="none" stroke="black" d="M1846.6,-434.326C1900.52,-419.859 1975.45,-399.427 1981.5,-396 2001.74,-384.537 1999.46,-371.818 2019.5,-360 2060.64,-335.74 2114.13,-321.302 2149.35,-313.764"/>
<polygon fill="black" stroke="black" points="2150.13,-317.177 2159.21,-311.73 2148.71,-310.321 2150.13,-317.177"/>
</g>
<!-- TomcatConnectionTimeout -->
<g id="node50" class="node"><title>TomcatConnectionTimeout</title>
<path fill="lightgrey" stroke="black" d="M5801,-468C5801,-468 5658,-468 5658,-468 5652,-468 5646,-462 5646,-456 5646,-456 5646,-444 5646,-444 5646,-438 5652,-432 5658,-432 5658,-432 5801,-432 5801,-432 5807,-432 5813,-438 5813,-444 5813,-444 5813,-456 5813,-456 5813,-462 5807,-468 5801,-468"/>
<text text-anchor="middle" x="5729.5" y="-446.3" font-family="Times,serif" font-size="14.00">TomcatConnectionTimeout</text>
</g>
<!-- TomcatConnectionTimeout&#45;&gt;ClusterNodeLaunchConfig -->
<g id="edge93" class="edge"><title>TomcatConnectionTimeout&#45;&gt;ClusterNodeLaunchConfig</title>
<path fill="none" stroke="black" d="M5647.43,-431.941C5501.3,-401.736 5186.31,-337.377 4919.5,-288 4733.27,-253.536 4687.94,-234.983 4499.5,-216 4181.83,-183.998 3190.91,-168.343 2883.44,-164.169"/>
<polygon fill="black" stroke="black" points="2883.27,-160.667 2873.23,-164.031 2883.18,-167.666 2883.27,-160.667"/>
</g>
<!-- DBStorageType -->
<g id="node51" class="node"><title>DBStorageType</title>
<path fill="lightgrey" stroke="black" d="M7046.5,-468C7046.5,-468 6966.5,-468 6966.5,-468 6960.5,-468 6954.5,-462 6954.5,-456 6954.5,-456 6954.5,-444 6954.5,-444 6954.5,-438 6960.5,-432 6966.5,-432 6966.5,-432 7046.5,-432 7046.5,-432 7052.5,-432 7058.5,-438 7058.5,-444 7058.5,-444 7058.5,-456 7058.5,-456 7058.5,-462 7052.5,-468 7046.5,-468"/>
<text text-anchor="middle" x="7006.5" y="-446.3" font-family="Times,serif" font-size="14.00">DBStorageType</text>
</g>
<!-- LoadBalancerScheme -->
<g id="node52" class="node"><title>LoadBalancerScheme</title>
<path fill="lightgrey" stroke="black" d="M644.5,-468C644.5,-468 532.5,-468 532.5,-468 526.5,-468 520.5,-462 520.5,-456 520.5,-456 520.5,-444 520.5,-444 520.5,-438 526.5,-432 532.5,-432 532.5,-432 644.5,-432 644.5,-432 650.5,-432 656.5,-438 656.5,-444 656.5,-444 656.5,-456 656.5,-456 656.5,-462 650.5,-468 644.5,-468"/>
<text text-anchor="middle" x="588.5" y="-446.3" font-family="Times,serif" font-size="14.00">LoadBalancerScheme</text>
</g>
<!-- LoadBalancerScheme&#45;&gt;LoadBalancer -->
<g id="edge47" class="edge"><title>LoadBalancerScheme&#45;&gt;LoadBalancer</title>
<path fill="none" stroke="black" d="M598.874,-431.871C613.789,-407.244 641.41,-361.638 658.823,-332.885"/>
<polygon fill="black" stroke="black" points="661.903,-334.556 664.09,-324.189 655.915,-330.93 661.903,-334.556"/>
</g>
<!-- TomcatScheme -->
<g id="node53" class="node"><title>TomcatScheme</title>
<path fill="lightgrey" stroke="black" d="M7166.5,-468C7166.5,-468 7088.5,-468 7088.5,-468 7082.5,-468 7076.5,-462 7076.5,-456 7076.5,-456 7076.5,-444 7076.5,-444 7076.5,-438 7082.5,-432 7088.5,-432 7088.5,-432 7166.5,-432 7166.5,-432 7172.5,-432 7178.5,-438 7178.5,-444 7178.5,-444 7178.5,-456 7178.5,-456 7178.5,-462 7172.5,-468 7166.5,-468"/>
<text text-anchor="middle" x="7127.5" y="-446.3" font-family="Times,serif" font-size="14.00">TomcatScheme</text>
</g>
<!-- TomcatMinSpareThreads -->
<g id="node54" class="node"><title>TomcatMinSpareThreads</title>
<path fill="lightgrey" stroke="black" d="M5975.5,-468C5975.5,-468 5843.5,-468 5843.5,-468 5837.5,-468 5831.5,-462 5831.5,-456 5831.5,-456 5831.5,-444 5831.5,-444 5831.5,-438 5837.5,-432 5843.5,-432 5843.5,-432 5975.5,-432 5975.5,-432 5981.5,-432 5987.5,-438 5987.5,-444 5987.5,-444 5987.5,-456 5987.5,-456 5987.5,-462 5981.5,-468 5975.5,-468"/>
<text text-anchor="middle" x="5909.5" y="-446.3" font-family="Times,serif" font-size="14.00">TomcatMinSpareThreads</text>
</g>
<!-- TomcatMinSpareThreads&#45;&gt;ClusterNodeLaunchConfig -->
<g id="edge98" class="edge"><title>TomcatMinSpareThreads&#45;&gt;ClusterNodeLaunchConfig</title>
<path fill="none" stroke="black" d="M5838.05,-431.99C5645.05,-386.91 5096.47,-264.507 4632.5,-216 4287.72,-179.954 3206.24,-166.947 2883.38,-163.811"/>
<polygon fill="black" stroke="black" points="2883.17,-160.309 2873.14,-163.712 2883.1,-167.308 2883.17,-160.309"/>
</g>
<!-- CrowdDownloadUrl -->
<g id="node55" class="node"><title>CrowdDownloadUrl</title>
<path fill="lightgrey" stroke="black" d="M6121.5,-468C6121.5,-468 6017.5,-468 6017.5,-468 6011.5,-468 6005.5,-462 6005.5,-456 6005.5,-456 6005.5,-444 6005.5,-444 6005.5,-438 6011.5,-432 6017.5,-432 6017.5,-432 6121.5,-432 6121.5,-432 6127.5,-432 6133.5,-438 6133.5,-444 6133.5,-444 6133.5,-456 6133.5,-456 6133.5,-462 6127.5,-468 6121.5,-468"/>
<text text-anchor="middle" x="6069.5" y="-446.3" font-family="Times,serif" font-size="14.00">CrowdDownloadUrl</text>
</g>
<!-- CrowdDownloadUrl&#45;&gt;ClusterNodeLaunchConfig -->
<g id="edge64" class="edge"><title>CrowdDownloadUrl&#45;&gt;ClusterNodeLaunchConfig</title>
<path fill="none" stroke="black" d="M6005.44,-433.935C6002.42,-433.271 5999.43,-432.623 5996.5,-432 5665.79,-361.644 5582.63,-345.824 5249.5,-288 5043.02,-252.16 4992.22,-234.825 4783.5,-216 4407.11,-182.053 3222.3,-167.447 2883.08,-163.894"/>
<polygon fill="black" stroke="black" points="2883.08,-160.394 2873.05,-163.79 2883.01,-167.394 2883.08,-160.394"/>
</g>
<!-- JvmHeapOverride -->
<g id="node56" class="node"><title>JvmHeapOverride</title>
<path fill="lightgrey" stroke="black" d="M6255.5,-468C6255.5,-468 6163.5,-468 6163.5,-468 6157.5,-468 6151.5,-462 6151.5,-456 6151.5,-456 6151.5,-444 6151.5,-444 6151.5,-438 6157.5,-432 6163.5,-432 6163.5,-432 6255.5,-432 6255.5,-432 6261.5,-432 6267.5,-438 6267.5,-444 6267.5,-444 6267.5,-456 6267.5,-456 6267.5,-462 6261.5,-468 6255.5,-468"/>
<text text-anchor="middle" x="6209.5" y="-446.3" font-family="Times,serif" font-size="14.00">JvmHeapOverride</text>
</g>
<!-- JvmHeapOverride&#45;&gt;ClusterNodeLaunchConfig -->
<g id="edge85" class="edge"><title>JvmHeapOverride&#45;&gt;ClusterNodeLaunchConfig</title>
<path fill="none" stroke="black" d="M6151.45,-434.022C6148.43,-433.32 6145.43,-432.642 6142.5,-432 5798.13,-356.609 5709.7,-349.045 5362.5,-288 5171.22,-254.37 5124.83,-234.45 4931.5,-216 4524.97,-177.204 3239.29,-165.959 2883.53,-163.553"/>
<polygon fill="black" stroke="black" points="2883.3,-160.051 2873.27,-163.484 2883.25,-167.051 2883.3,-160.051"/>
</g>
<!-- DBMultiAZ -->
<g id="node57" class="node"><title>DBMultiAZ</title>
<path fill="lightgrey" stroke="black" d="M1936.5,-468C1936.5,-468 1876.5,-468 1876.5,-468 1870.5,-468 1864.5,-462 1864.5,-456 1864.5,-456 1864.5,-444 1864.5,-444 1864.5,-438 1870.5,-432 1876.5,-432 1876.5,-432 1936.5,-432 1936.5,-432 1942.5,-432 1948.5,-438 1948.5,-444 1948.5,-444 1948.5,-456 1948.5,-456 1948.5,-462 1942.5,-468 1936.5,-468"/>
<text text-anchor="middle" x="1906.5" y="-446.3" font-family="Times,serif" font-size="14.00">DBMultiAZ</text>
</g>
<!-- DBMultiAZ&#45;&gt;DB -->
<g id="edge8" class="edge"><title>DBMultiAZ&#45;&gt;DB</title>
<path fill="none" stroke="black" d="M1944.76,-431.904C1966.81,-421.843 1994.94,-408.647 2019.5,-396 2048.52,-381.061 2054.76,-375.469 2083.5,-360 2105.51,-348.151 2130.44,-335.312 2150.25,-325.238"/>
<polygon fill="black" stroke="black" points="2151.91,-328.32 2159.25,-320.675 2148.75,-322.076 2151.91,-328.32"/>
</g>
<!-- TomcatContextPath -->
<g id="node58" class="node"><title>TomcatContextPath</title>
<path fill="lightgrey" stroke="black" d="M113,-468C113,-468 12,-468 12,-468 6,-468 7.10543e-15,-462 7.10543e-15,-456 7.10543e-15,-456 7.10543e-15,-444 7.10543e-15,-444 7.10543e-15,-438 6,-432 12,-432 12,-432 113,-432 113,-432 119,-432 125,-438 125,-444 125,-444 125,-456 125,-456 125,-462 119,-468 113,-468"/>
<text text-anchor="middle" x="62.5" y="-446.3" font-family="Times,serif" font-size="14.00">TomcatContextPath</text>
</g>
<!-- TomcatContextPath&#45;&gt;LoadBalancer -->
<g id="edge39" class="edge"><title>TomcatContextPath&#45;&gt;LoadBalancer</title>
<path fill="none" stroke="black" d="M125.213,-433.956C128.013,-433.293 130.786,-432.639 133.5,-432 310.227,-390.426 519.729,-342.369 618.132,-319.869"/>
<polygon fill="black" stroke="black" points="619.187,-323.218 628.156,-317.577 617.627,-316.394 619.187,-323.218"/>
</g>
<!-- TomcatContextPath&#45;&gt;ClusterNodeLaunchConfig -->
<g id="edge94" class="edge"><title>TomcatContextPath&#45;&gt;ClusterNodeLaunchConfig</title>
<path fill="none" stroke="black" d="M125.089,-433.28C127.923,-432.8 130.736,-432.369 133.5,-432 393.315,-397.301 1056.99,-454.517 1312.5,-396 1427.31,-369.706 1445.38,-332.332 1554.5,-288 1640.48,-253.07 1659.57,-234.57 1750.5,-216 1930.6,-179.219 2480.41,-167.438 2699.75,-164.141"/>
<polygon fill="black" stroke="black" points="2699.99,-167.638 2709.94,-163.99 2699.89,-160.639 2699.99,-167.638"/>
</g>
<!-- TomcatContextPath&#45;&gt;ServiceURL -->
<g id="edge126" class="edge"><title>TomcatContextPath&#45;&gt;ServiceURL</title>
<path fill="none" stroke="black" d="M68.0122,-431.935C85.3875,-406.894 124.5,-357.65 124.5,-307 124.5,-307 124.5,-307 124.5,-161 124.5,-118.588 143.63,-72.4948 162.155,-44.6803"/>
<polygon fill="black" stroke="black" points="165.162,-46.4923 168.123,-36.3198 159.465,-42.4252 165.162,-46.4923"/>
</g>
<!-- TomcatContextPath&#45;&gt;ServiceURL -->
<g id="edge127" class="edge"><title>TomcatContextPath&#45;&gt;ServiceURL</title>
<path fill="none" stroke="black" d="M79.8588,-431.935C103.387,-406.894 142.5,-357.65 142.5,-307 142.5,-307 142.5,-307 142.5,-161 142.5,-118.955 161.3,-73.2927 175.12,-45.4069"/>
<polygon fill="black" stroke="black" points="178.33,-46.8174 179.762,-36.3198 172.096,-43.6333 178.33,-46.8174"/>
</g>
<!-- TomcatContextPath&#45;&gt;ServiceURL -->
<g id="edge130" class="edge"><title>TomcatContextPath&#45;&gt;ServiceURL</title>
<path fill="none" stroke="black" d="M91.7055,-431.935C121.387,-406.894 160.5,-357.65 160.5,-307 160.5,-307 160.5,-307 160.5,-161 160.5,-119.322 178.973,-74.09 188.321,-46.1416"/>
<polygon fill="black" stroke="black" points="191.749,-46.9089 191.4,-36.3198 185.069,-44.8153 191.749,-46.9089"/>
</g>
<!-- DBMinIdle -->
<g id="node59" class="node"><title>DBMinIdle</title>
<path fill="lightgrey" stroke="black" d="M6353.5,-468C6353.5,-468 6297.5,-468 6297.5,-468 6291.5,-468 6285.5,-462 6285.5,-456 6285.5,-456 6285.5,-444 6285.5,-444 6285.5,-438 6291.5,-432 6297.5,-432 6297.5,-432 6353.5,-432 6353.5,-432 6359.5,-432 6365.5,-438 6365.5,-444 6365.5,-444 6365.5,-456 6365.5,-456 6365.5,-462 6359.5,-468 6353.5,-468"/>
<text text-anchor="middle" x="6325.5" y="-446.3" font-family="Times,serif" font-size="14.00">DBMinIdle</text>
</g>
<!-- DBMinIdle&#45;&gt;ClusterNodeLaunchConfig -->
<g id="edge70" class="edge"><title>DBMinIdle&#45;&gt;ClusterNodeLaunchConfig</title>
<path fill="none" stroke="black" d="M6285.27,-434.514C6282.32,-433.614 6279.37,-432.764 6276.5,-432 6109.54,-387.565 6064.5,-390.819 5894.5,-360 5527.4,-293.447 5438.8,-252.444 5067.5,-216 4632.86,-173.339 3252.54,-164.837 2883.16,-163.309"/>
<polygon fill="black" stroke="black" points="2883.06,-159.809 2873.05,-163.268 2883.03,-166.809 2883.06,-159.809"/>
</g>
<!-- DBRemoveAbandonedTimeout -->
<g id="node60" class="node"><title>DBRemoveAbandonedTimeout</title>
<path fill="lightgrey" stroke="black" d="M6561.5,-468C6561.5,-468 6395.5,-468 6395.5,-468 6389.5,-468 6383.5,-462 6383.5,-456 6383.5,-456 6383.5,-444 6383.5,-444 6383.5,-438 6389.5,-432 6395.5,-432 6395.5,-432 6561.5,-432 6561.5,-432 6567.5,-432 6573.5,-438 6573.5,-444 6573.5,-444 6573.5,-456 6573.5,-456 6573.5,-462 6567.5,-468 6561.5,-468"/>
<text text-anchor="middle" x="6478.5" y="-446.3" font-family="Times,serif" font-size="14.00">DBRemoveAbandonedTimeout</text>
</g>
<!-- DBRemoveAbandonedTimeout&#45;&gt;ClusterNodeLaunchConfig -->
<g id="edge76" class="edge"><title>DBRemoveAbandonedTimeout&#45;&gt;ClusterNodeLaunchConfig</title>
<path fill="none" stroke="black" d="M6392.65,-431.972C6240.61,-401.95 5913.97,-338.046 5637.5,-288 5452.86,-254.578 5408.26,-234.096 5221.5,-216 4755.08,-170.806 3268.92,-164.138 2883.51,-163.165"/>
<polygon fill="black" stroke="black" points="2883.25,-159.664 2873.25,-163.139 2883.24,-166.664 2883.25,-159.664"/>
</g>
<!-- ExternalSubnets -->
<g id="node61" class="node"><title>ExternalSubnets</title>
<path fill="lightgrey" stroke="black" d="M768,-468C768,-468 687,-468 687,-468 681,-468 675,-462 675,-456 675,-456 675,-444 675,-444 675,-438 681,-432 687,-432 687,-432 768,-432 768,-432 774,-432 780,-438 780,-444 780,-444 780,-456 780,-456 780,-462 774,-468 768,-468"/>
<text text-anchor="middle" x="727.5" y="-446.3" font-family="Times,serif" font-size="14.00">ExternalSubnets</text>
</g>
<!-- ExternalSubnets&#45;&gt;LoadBalancer -->
<g id="edge37" class="edge"><title>ExternalSubnets&#45;&gt;LoadBalancer</title>
<path fill="none" stroke="black" d="M720.551,-431.868C716.391,-421.516 711.047,-408.036 706.5,-396 698.642,-375.199 690.143,-351.5 683.88,-333.79"/>
<polygon fill="black" stroke="black" points="687.098,-332.39 680.473,-324.122 680.496,-334.716 687.098,-332.39"/>
</g>
<!-- StartCollectd -->
<g id="node62" class="node"><title>StartCollectd</title>
<path fill="lightgrey" stroke="black" d="M7272.5,-468C7272.5,-468 7208.5,-468 7208.5,-468 7202.5,-468 7196.5,-462 7196.5,-456 7196.5,-456 7196.5,-444 7196.5,-444 7196.5,-438 7202.5,-432 7208.5,-432 7208.5,-432 7272.5,-432 7272.5,-432 7278.5,-432 7284.5,-438 7284.5,-444 7284.5,-444 7284.5,-456 7284.5,-456 7284.5,-462 7278.5,-468 7272.5,-468"/>
<text text-anchor="middle" x="7240.5" y="-446.3" font-family="Times,serif" font-size="14.00">StartCollectd</text>
</g>
<!-- HostedZone -->
<g id="node63" class="node"><title>HostedZone</title>
<path fill="lightgrey" stroke="black" d="M214,-468C214,-468 155,-468 155,-468 149,-468 143,-462 143,-456 143,-456 143,-444 143,-444 143,-438 149,-432 155,-432 155,-432 214,-432 214,-432 220,-432 226,-438 226,-444 226,-444 226,-456 226,-456 226,-462 220,-468 214,-468"/>
<text text-anchor="middle" x="184.5" y="-446.3" font-family="Times,serif" font-size="14.00">HostedZone</text>
</g>
<!-- HostedZone&#45;&gt;LoadBalancerCname -->
<g id="edge1" class="edge"><title>HostedZone&#45;&gt;LoadBalancerCname</title>
<path fill="none" stroke="black" d="M209.142,-431.901C224.362,-422.557 243.535,-410.034 258.5,-396 302.821,-354.436 341.783,-294.285 364.828,-260.503"/>
<polygon fill="black" stroke="black" points="367.82,-262.329 370.617,-252.11 362.058,-258.355 367.82,-262.329"/>
</g>
<!-- HostedZone&#45;&gt;LoadBalancerCname -->
<g id="edge4" class="edge"><title>HostedZone&#45;&gt;LoadBalancerCname</title>
<path fill="none" stroke="black" d="M225.288,-431.901C242.362,-422.557 261.535,-410.034 276.5,-396 320.444,-354.79 359.119,-295.307 376.6,-261.371"/>
<polygon fill="black" stroke="black" points="379.881,-262.63 381.141,-252.11 373.596,-259.548 379.881,-262.63"/>
</g>
<!-- HostedZone&#45;&gt;DBCname -->
<g id="edge6" class="edge"><title>HostedZone&#45;&gt;DBCname</title>
<path fill="none" stroke="black" d="M224.983,-431.997C301.168,-400.456 471.516,-332.086 619.5,-288 682.58,-269.208 756.996,-253.28 804.209,-243.928"/>
<polygon fill="black" stroke="black" points="805.009,-247.338 814.148,-241.978 803.661,-240.469 805.009,-247.338"/>
</g>
<!-- HostedZone&#45;&gt;NFSR53name -->
<g id="edge49" class="edge"><title>HostedZone&#45;&gt;NFSR53name</title>
<path fill="none" stroke="black" d="M183.33,-431.84C193.636,-392.582 242.742,-293.626 292.5,-216 334.203,-150.94 390.748,-79.6025 426.746,-43.2444"/>
<polygon fill="black" stroke="black" points="429.413,-45.5318 434.104,-36.0318 424.512,-40.5332 429.413,-45.5318"/>
</g>
<!-- HostedZone&#45;&gt;NFSR53name -->
<g id="edge50" class="edge"><title>HostedZone&#45;&gt;NFSR53name</title>
<path fill="none" stroke="black" d="M192.683,-431.84C211.636,-392.582 260.742,-293.626 310.5,-216 351.854,-151.485 407.803,-80.796 437.671,-44.1645"/>
<polygon fill="black" stroke="black" points="440.703,-45.9863 444.33,-36.0318 435.287,-41.5513 440.703,-45.9863"/>
</g>
<!-- HostedZone&#45;&gt;NFSR53name -->
<g id="edge123" class="edge"><title>HostedZone&#45;&gt;NFSR53name</title>
<path fill="none" stroke="black" d="M202.035,-431.84C229.636,-392.582 278.742,-293.626 328.5,-216 369.68,-151.757 425.331,-81.3924 449.201,-44.63"/>
<polygon fill="black" stroke="black" points="452.241,-46.3703 454.557,-36.0318 446.299,-42.6692 452.241,-46.3703"/>
</g>
<!-- HostedZone&#45;&gt;ClusterNodeLaunchConfig -->
<g id="edge81" class="edge"><title>HostedZone&#45;&gt;ClusterNodeLaunchConfig</title>
<path fill="none" stroke="black" d="M226.271,-433.779C229.033,-433.089 231.792,-432.485 234.5,-432 531.661,-378.809 1294.19,-442.336 1592.5,-396 1876.88,-351.828 1931.71,-269.403 2214.5,-216 2383.86,-184.018 2584.97,-171.106 2699.47,-166.063"/>
<polygon fill="black" stroke="black" points="2699.76,-169.553 2709.6,-165.627 2699.46,-162.56 2699.76,-169.553"/>
</g>
<!-- DBMasterUserPassword -->
<g id="node64" class="node"><title>DBMasterUserPassword</title>
<path fill="lightgrey" stroke="black" d="M4000,-468C4000,-468 3873,-468 3873,-468 3867,-468 3861,-462 3861,-456 3861,-456 3861,-444 3861,-444 3861,-438 3867,-432 3873,-432 3873,-432 4000,-432 4000,-432 4006,-432 4012,-438 4012,-444 4012,-444 4012,-456 4012,-456 4012,-462 4006,-468 4000,-468"/>
<text text-anchor="middle" x="3936.5" y="-446.3" font-family="Times,serif" font-size="14.00">DBMasterUserPassword</text>
</g>
<!-- DBMasterUserPassword&#45;&gt;DB -->
<g id="edge9" class="edge"><title>DBMasterUserPassword&#45;&gt;DB</title>
<path fill="none" stroke="black" d="M3860.6,-433.134C3857.53,-432.711 3854.49,-432.329 3851.5,-432 3805.88,-426.98 2233.89,-426.396 2199.5,-396 2182.54,-381.011 2180.62,-354.463 2182.14,-334.251"/>
<polygon fill="black" stroke="black" points="2185.65,-334.387 2183.23,-324.071 2178.69,-333.643 2185.65,-334.387"/>
</g>
<!-- DBMasterUserPassword&#45;&gt;ClusterNodeLaunchConfig -->
<g id="edge71" class="edge"><title>DBMasterUserPassword&#45;&gt;ClusterNodeLaunchConfig</title>
<path fill="none" stroke="black" d="M3890.82,-431.988C3774.29,-389.236 3455.79,-276.412 3181.5,-216 3080.55,-193.766 2962.72,-179.302 2883.21,-171.189"/>
<polygon fill="black" stroke="black" points="2883.52,-167.703 2873.22,-170.183 2882.82,-174.668 2883.52,-167.703"/>
</g>
<!-- CidrBlock -->
<g id="node65" class="node"><title>CidrBlock</title>
<path fill="lightgrey" stroke="black" d="M1556,-468C1556,-468 1507,-468 1507,-468 1501,-468 1495,-462 1495,-456 1495,-456 1495,-444 1495,-444 1495,-438 1501,-432 1507,-432 1507,-432 1556,-432 1556,-432 1562,-432 1568,-438 1568,-444 1568,-444 1568,-456 1568,-456 1568,-462 1562,-468 1556,-468"/>
<text text-anchor="middle" x="1531.5" y="-446.3" font-family="Times,serif" font-size="14.00">CidrBlock</text>
</g>
<!-- CidrBlock&#45;&gt;SecurityGroup -->
<g id="edge29" class="edge"><title>CidrBlock&#45;&gt;SecurityGroup</title>
<path fill="none" stroke="black" d="M1520.66,-431.697C1519.51,-423.983 1519.58,-414.712 1520.76,-406.112"/>
<polygon fill="black" stroke="black" points="1524.23,-406.592 1522.73,-396.104 1517.36,-405.239 1524.23,-406.592"/>
</g>
<!-- CidrBlock&#45;&gt;SecurityGroup -->
<g id="edge30" class="edge"><title>CidrBlock&#45;&gt;SecurityGroup</title>
<path fill="none" stroke="black" d="M1532.49,-431.697C1532.93,-423.983 1533.46,-414.712 1533.95,-406.112"/>
<polygon fill="black" stroke="black" points="1537.45,-406.288 1534.52,-396.104 1530.46,-405.888 1537.45,-406.288"/>
</g>
<!-- CidrBlock&#45;&gt;SecurityGroup -->
<g id="edge31" class="edge"><title>CidrBlock&#45;&gt;SecurityGroup</title>
<path fill="none" stroke="black" d="M1544.32,-431.697C1546.35,-423.983 1547.34,-414.712 1547.14,-406.112"/>
<polygon fill="black" stroke="black" points="1550.63,-405.781 1546.31,-396.104 1543.65,-406.359 1550.63,-405.781"/>
</g>
<!-- SubDomainName -->
<g id="node66" class="node"><title>SubDomainName</title>
<path fill="lightgrey" stroke="black" d="M347,-468C347,-468 256,-468 256,-468 250,-468 244,-462 244,-456 244,-456 244,-444 244,-444 244,-438 250,-432 256,-432 256,-432 347,-432 347,-432 353,-432 359,-438 359,-444 359,-444 359,-456 359,-456 359,-462 353,-468 347,-468"/>
<text text-anchor="middle" x="301.5" y="-446.3" font-family="Times,serif" font-size="14.00">SubDomainName</text>
</g>
<!-- SubDomainName&#45;&gt;LoadBalancerCname -->
<g id="edge2" class="edge"><title>SubDomainName&#45;&gt;LoadBalancerCname</title>
<path fill="none" stroke="black" d="M328.184,-431.964C340.312,-422.798 353.671,-410.411 361.5,-396 384.527,-353.61 387.516,-296.166 386.952,-262.592"/>
<polygon fill="black" stroke="black" points="390.438,-262.071 386.648,-252.178 383.441,-262.275 390.438,-262.071"/>
</g>
<!-- ClusterNodeMax -->
<g id="node67" class="node"><title>ClusterNodeMax</title>
<path fill="lightgrey" stroke="black" d="M1464.5,-468C1464.5,-468 1378.5,-468 1378.5,-468 1372.5,-468 1366.5,-462 1366.5,-456 1366.5,-456 1366.5,-444 1366.5,-444 1366.5,-438 1372.5,-432 1378.5,-432 1378.5,-432 1464.5,-432 1464.5,-432 1470.5,-432 1476.5,-438 1476.5,-444 1476.5,-444 1476.5,-456 1476.5,-456 1476.5,-462 1470.5,-468 1464.5,-468"/>
<text text-anchor="middle" x="1421.5" y="-446.3" font-family="Times,serif" font-size="14.00">ClusterNodeMax</text>
</g>
<!-- ClusterNodeMax&#45;&gt;ClusterNodeGroup -->
<g id="edge22" class="edge"><title>ClusterNodeMax&#45;&gt;ClusterNodeGroup</title>
<path fill="none" stroke="black" d="M1429.19,-431.907C1440.29,-405.623 1459.5,-353.447 1459.5,-307 1459.5,-307 1459.5,-307 1459.5,-233 1459.5,-192.853 1454.68,-146.548 1451.15,-118.022"/>
<polygon fill="black" stroke="black" points="1454.61,-117.487 1449.87,-108.01 1447.66,-118.373 1454.61,-117.487"/>
</g>
<!-- AWS::StackName -->
<g id="node72" class="node"><title>AWS::StackName</title>
<ellipse fill="none" stroke="black" cx="906.5" cy="-378" rx="76.8869" ry="18"/>
<text text-anchor="middle" x="906.5" y="-374.3" font-family="Times,serif" font-size="14.00">AWS::StackName</text>
</g>
<!-- AWS::StackName&#45;&gt;LoadBalancerCname -->
<g id="edge3" class="edge"><title>AWS::StackName&#45;&gt;LoadBalancerCname</title>
<path fill="none" stroke="black" d="M861.69,-363.314C834.829,-354.143 800.555,-340.697 772.5,-324 751.081,-311.253 752.208,-298.276 729.5,-288 643.184,-248.94 533.562,-237.845 461.559,-235.111"/>
<polygon fill="black" stroke="black" points="461.327,-231.602 451.216,-234.766 461.094,-238.598 461.327,-231.602"/>
</g>
<!-- AWS::StackName&#45;&gt;DB -->
<g id="edge17" class="edge"><title>AWS::StackName&#45;&gt;DB</title>
<path fill="none" stroke="black" d="M960.435,-365.048C971.02,-363.068 982.074,-361.255 992.5,-360 1109.58,-345.911 1960.24,-315.051 2149.33,-308.315"/>
<polygon fill="black" stroke="black" points="2149.46,-311.813 2159.33,-307.96 2149.21,-304.817 2149.46,-311.813"/>
</g>
<!-- AWS::StackName&#45;&gt;ClusterNodeGroup -->
<g id="edge19" class="edge"><title>AWS::StackName&#45;&gt;ClusterNodeGroup</title>
<path fill="none" stroke="black" d="M912.076,-359.78C918.887,-340.68 931.851,-309.7 950.5,-288 986.904,-245.64 1003.42,-240.728 1053.5,-216 1161.49,-162.68 1297.21,-125.549 1377.9,-106.296"/>
<polygon fill="black" stroke="black" points="1379.02,-109.629 1387.95,-103.924 1377.41,-102.816 1379.02,-109.629"/>
</g>
<!-- AWS::StackName&#45;&gt;EBSRestoreVol -->
<g id="edge27" class="edge"><title>AWS::StackName&#45;&gt;EBSRestoreVol</title>
<path fill="none" stroke="black" d="M948.945,-362.919C979.855,-352.664 1022.17,-338.625 1056.67,-327.18"/>
<polygon fill="black" stroke="black" points="1057.79,-330.497 1066.18,-324.026 1055.59,-323.853 1057.79,-330.497"/>
</g>
<!-- AWS::StackName&#45;&gt;LoadBalancer -->
<g id="edge41" class="edge"><title>AWS::StackName&#45;&gt;LoadBalancer</title>
<path fill="none" stroke="black" d="M861.493,-363.42C823.999,-352.107 770.426,-335.943 730.226,-323.814"/>
<polygon fill="black" stroke="black" points="731.157,-320.439 720.572,-320.901 729.135,-327.14 731.157,-320.439"/>
</g>
<!-- AWS::StackName&#45;&gt;NFSR53name -->
<g id="edge48" class="edge"><title>AWS::StackName&#45;&gt;NFSR53name</title>
<path fill="none" stroke="black" d="M883.054,-360.687C806.462,-303.293 565.011,-110.492 484.662,-42.7655"/>
<polygon fill="black" stroke="black" points="486.858,-40.0384 476.967,-36.2407 482.331,-45.3775 486.858,-40.0384"/>
</g>
<!-- AWS::StackName&#45;&gt;NFSR53name -->
<g id="edge122" class="edge"><title>AWS::StackName&#45;&gt;NFSR53name</title>
<path fill="none" stroke="black" d="M888.842,-360.451C821.251,-302.634 579.761,-109.526 491.214,-42.3072"/>
<polygon fill="black" stroke="black" points="493.223,-39.4381 483.134,-36.2039 489.004,-45.0239 493.223,-39.4381"/>
</g>
<!-- AWS::StackName&#45;&gt;ClusterNodeLaunchConfig -->
<g id="edge59" class="edge"><title>AWS::StackName&#45;&gt;ClusterNodeLaunchConfig</title>
<path fill="none" stroke="black" d="M913.492,-359.834C927.087,-340.203 955.833,-308.18 986.5,-288 1058.82,-240.41 1082.75,-233.683 1167.5,-216 1316.83,-184.841 2378.31,-168.369 2699.61,-164.121"/>
<polygon fill="black" stroke="black" points="2699.86,-167.618 2709.82,-163.987 2699.77,-160.618 2699.86,-167.618"/>
</g>
<!-- AWS::StackName&#45;&gt;ClusterNodeLaunchConfig -->
<g id="edge62" class="edge"><title>AWS::StackName&#45;&gt;ClusterNodeLaunchConfig</title>
<path fill="none" stroke="black" d="M925.742,-360.53C944.403,-340.967 973.468,-308.42 1004.5,-288 1076.82,-240.41 1100.75,-233.683 1185.5,-216 1333.77,-185.063 2381.27,-168.604 2699.85,-164.213"/>
<polygon fill="black" stroke="black" points="2700.01,-167.711 2709.96,-164.074 2699.92,-160.712 2700.01,-167.711"/>
</g>
<!-- AWS::StackName&#45;&gt;NFSServer -->
<g id="edge107" class="edge"><title>AWS::StackName&#45;&gt;NFSServer</title>
<path fill="none" stroke="black" d="M928.422,-360.631C967.859,-335.125 1045.9,-288.717 1047.5,-288 1089.22,-269.34 1139.49,-254.404 1175.89,-245.204"/>
<polygon fill="black" stroke="black" points="1176.9,-248.559 1185.77,-242.762 1175.23,-241.763 1176.9,-248.559"/>
</g>
<!-- AWS::StackName&#45;&gt;NFSServer -->
<g id="edge109" class="edge"><title>AWS::StackName&#45;&gt;NFSServer</title>
<path fill="none" stroke="black" d="M938.088,-361.449C984.167,-336.131 1063.88,-288.724 1065.5,-288 1101.53,-271.889 1143.92,-258.554 1175.95,-249.29"/>
<polygon fill="black" stroke="black" points="1177.31,-252.54 1185.97,-246.426 1175.39,-245.81 1177.31,-252.54"/>
</g>
<!-- AWS::Region -->
<g id="node73" class="node"><title>AWS::Region</title>
<ellipse fill="none" stroke="black" cx="1242.5" cy="-378" rx="61.1893" ry="18"/>
<text text-anchor="middle" x="1242.5" y="-374.3" font-family="Times,serif" font-size="14.00">AWS::Region</text>
</g>
<!-- AWS::Region&#45;&gt;EBSRestoreVol -->
<g id="edge26" class="edge"><title>AWS::Region&#45;&gt;EBSRestoreVol</title>
<path fill="none" stroke="black" d="M1215.38,-361.811C1198.27,-352.23 1175.89,-339.697 1156.84,-329.033"/>
<polygon fill="black" stroke="black" points="1158.52,-325.959 1148.08,-324.127 1155.1,-332.067 1158.52,-325.959"/>
</g>
<!-- AWS::Region&#45;&gt;ClusterNodeLaunchConfig -->
<g id="edge52" class="edge"><title>AWS::Region&#45;&gt;ClusterNodeLaunchConfig</title>
<path fill="none" stroke="black" d="M1256.57,-360.18C1278.32,-340.875 1320.52,-309.157 1360.5,-288 1440.32,-245.76 1462.04,-234.172 1550.5,-216 1769.49,-171.013 2451.17,-164.154 2699.71,-163.153"/>
<polygon fill="black" stroke="black" points="2699.8,-166.653 2709.79,-163.115 2699.78,-159.653 2699.8,-166.653"/>
</g>
<!-- AWS::Region&#45;&gt;ClusterNodeLaunchConfig -->
<g id="edge60" class="edge"><title>AWS::Region&#45;&gt;ClusterNodeLaunchConfig</title>
<path fill="none" stroke="black" d="M1267.6,-361.538C1294.31,-342.391 1337.57,-309.661 1378.5,-288 1458.32,-245.76 1480.04,-234.172 1568.5,-216 1784.93,-171.539 2453.28,-164.32 2699.37,-163.191"/>
<polygon fill="black" stroke="black" points="2699.72,-166.689 2709.71,-163.146 2699.69,-159.689 2699.72,-166.689"/>
</g>
<!-- AWS::Region&#45;&gt;NFSServer -->
<g id="edge108" class="edge"><title>AWS::Region&#45;&gt;NFSServer</title>
<path fill="none" stroke="black" d="M1226.83,-360.433C1215.96,-336.43 1209.34,-291.684 1211.58,-262.635"/>
<polygon fill="black" stroke="black" points="1215.1,-262.706 1212.88,-252.346 1208.15,-261.829 1215.1,-262.706"/>
</g>
<!-- AWS::Region&#45;&gt;NFSServer -->
<g id="edge110" class="edge"><title>AWS::Region&#45;&gt;NFSServer</title>
<path fill="none" stroke="black" d="M1235.74,-359.871C1230.12,-335.67 1224.19,-291.211 1222.51,-262.393"/>
<polygon fill="black" stroke="black" points="1226,-262.035 1222.09,-252.189 1219.01,-262.326 1226,-262.035"/>
</g>
<!-- AWS::Region&#45;&gt;NFSServer -->
<g id="edge111" class="edge"><title>AWS::Region&#45;&gt;NFSServer</title>
<path fill="none" stroke="black" d="M1244.91,-359.871C1244.4,-335.564 1239.01,-290.819 1233.36,-262.013"/>
<polygon fill="black" stroke="black" points="1236.77,-261.244 1231.27,-252.189 1229.92,-262.698 1236.77,-261.244"/>
</g>
<!-- AWS::Region&#45;&gt;NFSServer -->
<g id="edge112" class="edge"><title>AWS::Region&#45;&gt;NFSServer</title>
<path fill="none" stroke="black" d="M1254.03,-360.153C1258.76,-335.838 1253.89,-290.66 1244.13,-261.753"/>
<polygon fill="black" stroke="black" points="1247.34,-260.345 1240.49,-252.268 1240.81,-262.858 1247.34,-260.345"/>
</g>
<!-- AWS::NoValue -->
<g id="node74" class="node"><title>AWS::NoValue</title>
<ellipse fill="none" stroke="black" cx="2276.5" cy="-378" rx="67.6881" ry="18"/>
<text text-anchor="middle" x="2276.5" y="-374.3" font-family="Times,serif" font-size="14.00">AWS::NoValue</text>
</g>
<!-- AWS::NoValue&#45;&gt;DB -->
<g id="edge10" class="edge"><title>AWS::NoValue&#45;&gt;DB</title>
<path fill="none" stroke="black" d="M2250.32,-361.116C2237.74,-352.136 2222.85,-340.734 2210.56,-330.714"/>
<polygon fill="black" stroke="black" points="2212.46,-327.738 2202.53,-324.044 2207.98,-333.124 2212.46,-327.738"/>
</g>
<!-- AWS::NoValue&#45;&gt;DB -->
<g id="edge15" class="edge"><title>AWS::NoValue&#45;&gt;DB</title>
<path fill="none" stroke="black" d="M2261.01,-360.411C2250.14,-351.17 2235.35,-339.536 2221.76,-329.487"/>
<polygon fill="black" stroke="black" points="2223.65,-326.529 2213.5,-323.47 2219.52,-332.187 2223.65,-326.529"/>
</g>
<!-- AWS::NoValue&#45;&gt;LoadBalancer -->
<g id="edge45" class="edge"><title>AWS::NoValue&#45;&gt;LoadBalancer</title>
<path fill="none" stroke="black" d="M2210.97,-373.397C2144.58,-369.797 2038.91,-364.208 1947.5,-360 1551.6,-341.774 1452.47,-340.81 1056.5,-324 940.735,-319.085 805.255,-312.97 730.756,-309.576"/>
<polygon fill="black" stroke="black" points="730.806,-306.074 720.657,-309.115 730.487,-313.067 730.806,-306.074"/>
</g>
<!-- AWS::NoValue&#45;&gt;ClusterNodeLaunchConfig -->
<g id="edge61" class="edge"><title>AWS::NoValue&#45;&gt;ClusterNodeLaunchConfig</title>
<path fill="none" stroke="black" d="M2266.72,-360.131C2265.89,-340.481 2275.66,-308.149 2295.5,-288 2351.93,-230.703 2384.41,-238.9 2461.5,-216 2539.78,-192.748 2632.32,-178.631 2699.71,-170.879"/>
<polygon fill="black" stroke="black" points="2700.34,-174.33 2709.88,-169.735 2699.55,-167.374 2700.34,-174.33"/>
</g>
<!-- AWS::NoValue&#45;&gt;ClusterNodeLaunchConfig -->
<g id="edge101" class="edge"><title>AWS::NoValue&#45;&gt;ClusterNodeLaunchConfig</title>
<path fill="none" stroke="black" d="M2279.62,-359.781C2284,-340.099 2293.77,-308.029 2313.5,-288 2369.93,-230.703 2402.41,-238.9 2479.5,-216 2551.97,-194.473 2636.66,-180.776 2699.51,-172.711"/>
<polygon fill="black" stroke="black" points="2700.31,-176.138 2709.8,-171.416 2699.44,-169.193 2700.31,-176.138"/>
</g>
<!-- AWS::NoValue&#45;&gt;ClusterNodeLaunchConfig -->
<g id="edge106" class="edge"><title>AWS::NoValue&#45;&gt;ClusterNodeLaunchConfig</title>
<path fill="none" stroke="black" d="M2292.19,-360.478C2301.77,-340.865 2311.54,-308.268 2331.5,-288 2387.93,-230.703 2420.41,-238.9 2497.5,-216 2564.22,-196.182 2641.3,-183 2699.97,-174.739"/>
<polygon fill="black" stroke="black" points="2700.54,-178.193 2709.96,-173.354 2699.58,-171.26 2700.54,-178.193"/>
</g>
<!-- AWS::StackId -->
<g id="node75" class="node"><title>AWS::StackId</title>
<ellipse fill="none" stroke="black" cx="1063.5" cy="-378" rx="62.2891" ry="18"/>
<text text-anchor="middle" x="1063.5" y="-374.3" font-family="Times,serif" font-size="14.00">AWS::StackId</text>
</g>
<!-- AWS::StackId&#45;&gt;EBSRestoreVol -->
<g id="edge28" class="edge"><title>AWS::StackId&#45;&gt;EBSRestoreVol</title>
<path fill="none" stroke="black" d="M1076.57,-360.055C1082.98,-351.753 1090.82,-341.584 1097.92,-332.378"/>
<polygon fill="black" stroke="black" points="1100.84,-334.331 1104.17,-324.275 1095.29,-330.055 1100.84,-334.331"/>
</g>
</g>
</svg>
