[
  {
    "ParameterKey": "AssociatePublicIpAddress",
    "ParameterValue": "true"
  },
  {
    "ParameterKey": "ConfluenceVersion",
    "ParameterValue": "6.10.1"
  },
  {
    "ParameterKey": "DBMasterUserPassword",
    "ParameterValue": "password1234"
  },
  {
    "ParameterKey": "DBPassword",
    "ParameterValue": "password1234"
  },
  {
    "ParameterKey": "DBStorage",
    "ParameterValue": "100"
  },
  {
    "ParameterKey": "DBMultiAZ",
    "ParameterValue": "false"
  },
  {
    "ParameterKey": "KeyPairName",
    "ParameterValue": "WPE-GenericKeyPair-20161102"
  },
  {
    "ParameterKey": "CidrBlock",
    "ParameterValue": "0.0.0.0/0"
  }
]
